Classes/Computer_Architecture/HW/Tmp/code/Project2.vcd
$date
	Sat Dec 28 18:03:31 2019
$end
$version
	Icarus Verilog
$end
$timescale
	1s
$end
$scope module TestBench $end
$var wire 32 ! cpu_mem_addr [31:0] $end
$var wire 256 " cpu_mem_data [255:0] $end
$var wire 1 # cpu_mem_enable $end
$var wire 1 $ cpu_mem_write $end
$var wire 1 % mem_cpu_ack $end
$var wire 256 & mem_cpu_data [255:0] $end
$var reg 1 ' Clk $end
$var reg 1 ( Reset $end
$var reg 1 ) Start $end
$var reg 27 * address [26:0] $end
$var integer 32 + counter [31:0] $end
$var reg 1 , flag $end
$var integer 32 - i [31:0] $end
$var reg 5 . index [4:0] $end
$var integer 32 / outfile [31:0] $end
$var integer 32 0 outfile2 [31:0] $end
$var reg 24 1 tag [23:0] $end
$scope module CPU $end
$var wire 4 2 EX_aluCtrl [3:0] $end
$var wire 2 3 EX_aluOp [1:0] $end
$var wire 32 4 EX_aluResult [31:0] $end
$var wire 1 5 EX_aluSrc $end
$var wire 32 6 EX_aluSrc1 [31:0] $end
$var wire 32 7 EX_aluSrc2 [31:0] $end
$var wire 2 8 EX_forwardingA [1:0] $end
$var wire 2 9 EX_forwardingB [1:0] $end
$var wire 10 : EX_funct [9:0] $end
$var wire 32 ; EX_immExtended [31:0] $end
$var wire 1 < EX_memRead $end
$var wire 1 = EX_memToReg $end
$var wire 1 > EX_memWrite $end
$var wire 5 ? EX_rdAddr [4:0] $end
$var wire 1 @ EX_regWrite $end
$var wire 5 A EX_rsAddr [4:0] $end
$var wire 32 B EX_rsData [31:0] $end
$var wire 5 C EX_rtAddr [4:0] $end
$var wire 32 D EX_rtData [31:0] $end
$var wire 32 E EX_rtForward [31:0] $end
$var wire 5 F EX_wbAddr [4:0] $end
$var wire 1 G ID_IFFlush $end
$var wire 2 H ID_aluOp [1:0] $end
$var wire 2 I ID_aluOpMux [1:0] $end
$var wire 1 J ID_aluSrc $end
$var wire 1 K ID_aluSrcMux $end
$var wire 1 L ID_branch $end
$var wire 1 M ID_equal $end
$var wire 10 N ID_funct [9:0] $end
$var wire 1 O ID_hazardDetected $end
$var wire 32 P ID_immExtended [31:0] $end
$var wire 32 Q ID_immShifted [31:0] $end
$var wire 32 R ID_instr [31:0] $end
$var wire 32 S ID_instrAddr [31:0] $end
$var wire 1 T ID_memRead $end
$var wire 1 U ID_memReadMux $end
$var wire 1 V ID_memToReg $end
$var wire 1 W ID_memToRegMux $end
$var wire 1 X ID_memWrite $end
$var wire 1 Y ID_memWriteMux $end
$var wire 32 Z ID_pcBranch [31:0] $end
$var wire 1 [ ID_regWrite $end
$var wire 1 \ ID_regWriteMux $end
$var wire 32 ] ID_rsData [31:0] $end
$var wire 32 ^ ID_rtData [31:0] $end
$var wire 5 _ ID_wbAddr [4:0] $end
$var wire 1 ` ID_wbDst $end
$var wire 32 a IF_instr [31:0] $end
$var wire 32 b IF_instrAddr [31:0] $end
$var wire 32 c IF_pc [31:0] $end
$var wire 32 d IF_pcNext [31:0] $end
$var wire 32 e MEM_aluResult [31:0] $end
$var wire 32 f MEM_memData [31:0] $end
$var wire 1 g MEM_memRead $end
$var wire 1 h MEM_memToReg $end
$var wire 1 i MEM_memWrite $end
$var wire 1 j MEM_regWrite $end
$var wire 32 k MEM_rtData [31:0] $end
$var wire 1 l MEM_stall $end
$var wire 5 m MEM_wbAddr [4:0] $end
$var wire 32 n WB_aluResult [31:0] $end
$var wire 32 o WB_memData [31:0] $end
$var wire 1 p WB_memToReg $end
$var wire 1 q WB_regWrite $end
$var wire 5 r WB_wbAddr [4:0] $end
$var wire 32 s WB_wbData [31:0] $end
$var wire 1 t clk_i $end
$var wire 1 % mem_ack_i $end
$var wire 32 u mem_addr_o [31:0] $end
$var wire 256 v mem_data_i [255:0] $end
$var wire 256 w mem_data_o [255:0] $end
$var wire 1 # mem_enable_o $end
$var wire 1 $ mem_write_o $end
$var wire 1 x rst_i $end
$var wire 1 y start_i $end
$scope module PC_Adder $end
$var wire 32 z operand1_i [31:0] $end
$var wire 32 { operand2_i [31:0] $end
$var reg 32 | result_o [31:0] $end
$upscope $end
$scope module Branch_Adder $end
$var wire 32 } operand1_i [31:0] $end
$var wire 32 ~ operand2_i [31:0] $end
$var reg 32 !" result_o [31:0] $end
$upscope $end
$scope module PC_Dst_MUX $end
$var wire 1 L signal_i $end
$var wire 32 "" source1_i [31:0] $end
$var wire 32 #" source2_i [31:0] $end
$var reg 32 $" output_o [31:0] $end
$upscope $end
$scope module RT_IMM_MUX $end
$var wire 1 5 signal_i $end
$var wire 32 %" source1_i [31:0] $end
$var wire 32 &" source2_i [31:0] $end
$var reg 32 '" output_o [31:0] $end
$upscope $end
$scope module WB_Addr_MUX $end
$var wire 1 ` signal_i $end
$var wire 5 (" source1_i [4:0] $end
$var wire 5 )" source2_i [4:0] $end
$var reg 5 *" output_o [4:0] $end
$upscope $end
$scope module MUX_MemToReg $end
$var wire 32 +" aluResult_i [31:0] $end
$var wire 32 ," memData_i [31:0] $end
$var wire 1 p memToReg_i $end
$var reg 32 -" wbData_o [31:0] $end
$upscope $end
$scope module MUX_AluSrc1 $end
$var wire 32 ." aluForward_i [31:0] $end
$var wire 32 /" currentData_i [31:0] $end
$var wire 2 0" forwarSignal_i [1:0] $end
$var wire 32 1" memForward_i [31:0] $end
$var reg 32 2" output_o [31:0] $end
$upscope $end
$scope module MUX_AluSrc2 $end
$var wire 32 3" aluForward_i [31:0] $end
$var wire 32 4" currentData_i [31:0] $end
$var wire 2 5" forwarSignal_i [1:0] $end
$var wire 32 6" memForward_i [31:0] $end
$var reg 32 7" output_o [31:0] $end
$upscope $end
$scope module MUX_Stall $end
$var wire 2 8" aluOp_i [1:0] $end
$var wire 1 J aluSrc_i $end
$var wire 1 O hazardDetected_i $end
$var wire 1 T memRead_i $end
$var wire 1 V memToReg_i $end
$var wire 1 X memWrite_i $end
$var wire 1 [ regWrite_i $end
$var wire 1 9" zero_i $end
$var reg 2 :" aluOp_o [1:0] $end
$var reg 1 ;" aluSrc_o $end
$var reg 1 <" memRead_o $end
$var reg 1 =" memToReg_o $end
$var reg 1 >" memWrite_o $end
$var reg 1 ?" regWrite_o $end
$upscope $end
$scope module ALU $end
$var wire 4 @" aluCtrl_i [3:0] $end
$var wire 32 A" aluSrc1_i [31:0] $end
$var wire 32 B" aluSrc2_i [31:0] $end
$var reg 32 C" aluResult_o [31:0] $end
$upscope $end
$scope module Control $end
$var wire 1 M equal_i $end
$var wire 7 D" opCode_i [6:0] $end
$var reg 2 E" aluOp_o [1:0] $end
$var reg 1 F" aluSrc_o $end
$var reg 1 G" branch_o $end
$var reg 1 H" flush_o $end
$var reg 1 I" memRead_o $end
$var reg 1 J" memToReg_o $end
$var reg 1 K" memWrite_o $end
$var reg 1 L" regWrite_o $end
$var reg 1 M" wbDst_o $end
$upscope $end
$scope module ALU_Control $end
$var wire 2 N" aluOp_i [1:0] $end
$var wire 10 O" funct_i [9:0] $end
$var reg 4 P" aluCtrl_o [3:0] $end
$upscope $end
$scope module Register_IF_ID $end
$var wire 1 G IFFlush_i $end
$var wire 1 t clk_i $end
$var wire 1 O hazardDetected_i $end
$var wire 32 Q" instrAddr_i [31:0] $end
$var wire 32 R" instr_i [31:0] $end
$var wire 1 l stall_i $end
$var reg 32 S" instrAddr_o [31:0] $end
$var reg 32 T" instr_o [31:0] $end
$upscope $end
$scope module Register_ID_EX $end
$var wire 2 U" aluOp_i [1:0] $end
$var wire 1 K aluSrc_i $end
$var wire 1 t clk_i $end
$var wire 10 V" funct_i [9:0] $end
$var wire 32 W" immExtended_i [31:0] $end
$var wire 1 U memRead_i $end
$var wire 1 W memToReg_i $end
$var wire 1 Y memWrite_i $end
$var wire 5 X" rdAddr_i [4:0] $end
$var wire 1 \ regWrite_i $end
$var wire 5 Y" rsAddr_i [4:0] $end
$var wire 32 Z" rsData_i [31:0] $end
$var wire 5 [" rtAddr_i [4:0] $end
$var wire 32 \" rtData_i [31:0] $end
$var wire 1 l stall_i $end
$var wire 5 ]" wbAddr_i [4:0] $end
$var reg 2 ^" aluOp_o [1:0] $end
$var reg 1 _" aluSrc_o $end
$var reg 10 `" funct_o [9:0] $end
$var reg 32 a" immExtended_o [31:0] $end
$var reg 1 b" memRead_o $end
$var reg 1 c" memToReg_o $end
$var reg 1 d" memWrite_o $end
$var reg 5 e" rdAddr_o [4:0] $end
$var reg 1 f" regWrite_o $end
$var reg 5 g" rsAddr_o [4:0] $end
$var reg 32 h" rsData_o [31:0] $end
$var reg 5 i" rtAddr_o [4:0] $end
$var reg 32 j" rtData_o [31:0] $end
$var reg 5 k" wbAddr_o [4:0] $end
$upscope $end
$scope module Register_EX_MEM $end
$var wire 32 l" aluResult_i [31:0] $end
$var wire 1 t clk_i $end
$var wire 1 < memRead_i $end
$var wire 1 = memToReg_i $end
$var wire 1 > memWrite_i $end
$var wire 1 @ regWrite_i $end
$var wire 32 m" rtData_i [31:0] $end
$var wire 1 l stall_i $end
$var wire 5 n" wbAddr_i [4:0] $end
$var reg 32 o" aluResult_o [31:0] $end
$var reg 1 p" memRead_o $end
$var reg 1 q" memToReg_o $end
$var reg 1 r" memWrite_o $end
$var reg 1 s" regWrite_o $end
$var reg 32 t" rtData_o [31:0] $end
$var reg 5 u" wbAddr_o [4:0] $end
$upscope $end
$scope module Register_MEM_WB $end
$var wire 32 v" aluResult_i [31:0] $end
$var wire 1 t clk_i $end
$var wire 32 w" memData_i [31:0] $end
$var wire 1 h memToReg_i $end
$var wire 1 j regWrite_i $end
$var wire 1 l stall_i $end
$var wire 5 x" wbAddr_i [4:0] $end
$var reg 32 y" aluResult_o [31:0] $end
$var reg 32 z" memData_o [31:0] $end
$var reg 1 {" memToReg_o $end
$var reg 1 |" regWrite_o $end
$var reg 5 }" wbAddr_o [4:0] $end
$upscope $end
$scope module Sign_Extend $end
$var wire 32 ~" instr_i [31:0] $end
$var reg 32 !# immExtended_o [31:0] $end
$var reg 12 "# tmp [11:0] $end
$upscope $end
$scope module Shift $end
$var wire 32 ## immExtended_i [31:0] $end
$var reg 32 $# immShifted_o [31:0] $end
$upscope $end
$scope module Branch_Equal $end
$var wire 32 %# rsData_i [31:0] $end
$var wire 32 &# rtData_i [31:0] $end
$var reg 1 '# equal_o $end
$upscope $end
$scope module Forwarding_Unit $end
$var wire 5 (# EX_rsAddr_i [4:0] $end
$var wire 5 )# EX_rtAddr_i [4:0] $end
$var wire 1 j MEM_regWrite_i $end
$var wire 5 *# MEM_wbAddr_i [4:0] $end
$var wire 1 q WB_regWrite_i $end
$var wire 5 +# WB_wbAddr_i [4:0] $end
$var reg 2 ,# Forward_A_o [1:0] $end
$var reg 2 -# Forward_B_o [1:0] $end
$upscope $end
$scope module Hazard_Detection_Unit $end
$var wire 1 < EX_memRead_i $end
$var wire 5 .# EX_wbAddr_i [4:0] $end
$var wire 5 /# ID_rsAddr_i [4:0] $end
$var wire 5 0# ID_rtAddr_i [4:0] $end
$var reg 1 1# hazardDetected_o $end
$upscope $end
$scope module PC $end
$var wire 1 2# PCWrite_i $end
$var wire 1 t clk_i $end
$var wire 32 3# pc_i [31:0] $end
$var wire 1 x rst_i $end
$var wire 1 l stall_i $end
$var wire 1 y start_i $end
$var reg 32 4# pc_o [31:0] $end
$upscope $end
$scope module Instruction_Memory $end
$var wire 32 5# addr_i [31:0] $end
$var wire 32 6# instr_o [31:0] $end
$upscope $end
$scope module Registers $end
$var wire 5 7# RDaddr_i [4:0] $end
$var wire 32 8# RDdata_i [31:0] $end
$var wire 5 9# RS1addr_i [4:0] $end
$var wire 32 :# RS1data_o [31:0] $end
$var wire 5 ;# RS2addr_i [4:0] $end
$var wire 32 <# RS2data_o [31:0] $end
$var wire 1 q RegWrite_i $end
$var wire 1 t clk_i $end
$upscope $end
$scope module dcache $end
$var wire 1 =# cache_dirty $end
$var wire 256 ># cache_sram_data [255:0] $end
$var wire 1 ?# cache_sram_enable $end
$var wire 5 @# cache_sram_index [4:0] $end
$var wire 24 A# cache_sram_tag [23:0] $end
$var wire 1 B# cache_sram_write $end
$var wire 1 t clk_i $end
$var wire 1 C# hit $end
$var wire 1 % mem_ack_i $end
$var wire 32 D# mem_addr_o [31:0] $end
$var wire 256 E# mem_data_i [255:0] $end
$var wire 256 F# mem_data_o [255:0] $end
$var wire 1 # mem_enable_o $end
$var wire 1 $ mem_write_o $end
$var wire 1 g p1_MemRead_i $end
$var wire 1 i p1_MemWrite_i $end
$var wire 32 G# p1_addr_i [31:0] $end
$var wire 32 H# p1_data_i [31:0] $end
$var wire 32 I# p1_data_o [31:0] $end
$var wire 5 J# p1_index [4:0] $end
$var wire 5 K# p1_offset [4:0] $end
$var wire 1 L# p1_req $end
$var wire 1 l p1_stall_o $end
$var wire 22 M# p1_tag [21:0] $end
$var wire 256 N# r_hit_data [255:0] $end
$var wire 1 x rst_i $end
$var wire 256 O# sram_cache_data [255:0] $end
$var wire 24 P# sram_cache_tag [23:0] $end
$var wire 1 Q# sram_dirty $end
$var wire 22 R# sram_tag [21:0] $end
$var wire 1 S# sram_valid $end
$var wire 1 T# write_hit $end
$var reg 1 U# cache_we $end
$var reg 1 V# mem_enable $end
$var reg 1 W# mem_write $end
$var reg 32 X# p1_data [31:0] $end
$var reg 3 Y# state [2:0] $end
$var reg 256 Z# w_hit_data [255:0] $end
$var reg 1 [# write_back $end
$scope module dcache_tag_sram $end
$var wire 5 \# addr_i [4:0] $end
$var wire 1 t clk_i $end
$var wire 24 ]# data_i [23:0] $end
$var wire 24 ^# data_o [23:0] $end
$var wire 1 ?# enable_i $end
$var wire 1 B# write_i $end
$upscope $end
$scope module dcache_data_sram $end
$var wire 5 _# addr_i [4:0] $end
$var wire 1 t clk_i $end
$var wire 256 `# data_i [255:0] $end
$var wire 256 a# data_o [255:0] $end
$var wire 1 ?# enable_i $end
$var wire 1 B# write_i $end
$upscope $end
$upscope $end
$upscope $end
$scope module Data_Memory $end
$var wire 1 % ack_o $end
$var wire 27 b# addr [26:0] $end
$var wire 32 c# addr_i [31:0] $end
$var wire 1 t clk_i $end
$var wire 256 d# data_i [255:0] $end
$var wire 256 e# data_o [255:0] $end
$var wire 1 # enable_i $end
$var wire 1 x rst_i $end
$var wire 1 $ write_i $end
$var reg 4 f# count [3:0] $end
$var reg 256 g# data [255:0] $end
$var reg 2 h# state [1:0] $end
$upscope $end
$upscope $end
$enddefinitions $end
#0
$dumpvars
b0 h#
b0 g#
b0 f#
b0 e#
b0 d#
b0 c#
b0 b#
b0 a#
b0 `#
b0 _#
b0 ^#
b100000000000000000000000 ]#
b0 \#
0[#
bx Z#
b0 Y#
b0 X#
0W#
0V#
0U#
0T#
0S#
b0 R#
0Q#
b0 P#
b0 O#
b0 N#
b0 M#
0L#
b0 K#
b0 J#
b0 I#
b0 H#
b0 G#
b0 F#
b0 E#
b0 D#
0C#
0B#
b100000000000000000000000 A#
b0 @#
0?#
b0 >#
0=#
b0 <#
b0 ;#
b0 :#
b0 9#
b0 8#
b0 7#
b10000010011 6#
b0 5#
b0 4#
b100 3#
12#
01#
b0 0#
b0 /#
b0 .#
b0 -#
b0 ,#
b0 +#
b0 *#
b0 )#
b0 (#
1'#
b0 &#
b0 %#
b0 $#
b0 ##
b0 "#
b0 !#
b0 ~"
b0 }"
0|"
0{"
b0 z"
b0 y"
b0 x"
b0 w"
b0 v"
b0 u"
b0 t"
0s"
0r"
0q"
0p"
b0 o"
b0 n"
b0 m"
b0 l"
b0 k"
b0 j"
b0 i"
b0 h"
b0 g"
0f"
b0 e"
0d"
0c"
0b"
b0 a"
b0 `"
0_"
b0 ^"
b0 ]"
b0 \"
b0 ["
b0 Z"
b0 Y"
b0 X"
b0 W"
b0 V"
b0 U"
b0 T"
b0 S"
b10000010011 R"
b0 Q"
b10 P"
b0 O"
b0 N"
1M"
1L"
0K"
0J"
0I"
0H"
0G"
1F"
b0 E"
b0 D"
b0 C"
b0 B"
b0 A"
b10 @"
1?"
0>"
0="
0<"
1;"
b0 :"
09"
b0 8"
b0 7"
b0 6"
b0 5"
b0 4"
b0 3"
b0 2"
b0 1"
b0 0"
b0 /"
b0 ."
b0 -"
b0 ,"
b0 +"
b0 *"
b0 )"
b0 ("
b0 '"
b0 &"
b0 %"
b100 $"
b0 #"
b100 ""
b0 !"
b0 ~
b0 }
b100 |
b100 {
b0 z
0y
0x
b0 w
b0 v
b0 u
0t
b0 s
b0 r
0q
0p
b0 o
b0 n
b0 m
0l
b0 k
0j
0i
0h
0g
b0 f
b0 e
b100 d
b100 c
b0 b
b10000010011 a
1`
b0 _
b0 ^
b0 ]
1\
1[
b0 Z
0Y
0X
0W
0V
0U
0T
b0 S
b0 R
b0 Q
b0 P
0O
b0 N
1M
0L
1K
1J
b0 I
b0 H
0G
b0 F
b0 E
b0 D
b0 C
b0 B
b0 A
0@
b0 ?
0>
0=
0<
b0 ;
b0 :
b0 9
b0 8
b0 7
b0 6
05
b0 4
b0 3
b10 2
bx 1
b101 0
b11 /
bx .
b100000 -
x,
b0 +
bx *
0)
0(
0'
b0 &
0%
0$
0#
b0 "
b0 !
$end
#12
1)
1y
1(
1x
#25
b1 :"
b1 I
b1 U"
b1 E"
b1 H
b1 8"
b1000 *"
b1000 _
b1000 ]"
b1000 $"
b1000 c
b1000 3#
b1000 X"
b10011 D"
b1000 )"
b100000000010000000100011 a
b100000000010000000100011 R"
b100000000010000000100011 6#
b1000 |
b1000 d
b1000 ""
b10000010011 T"
b10000010011 R
b10000010011 ~"
1f"
1@
1_"
15
b100 4#
b100 b
b100 z
b100 Q"
b100 5#
b1 +
0,
1'
1t
#50
0'
0t
#75
0?"
0\
1>"
1Y
b0 :"
b0 I
b0 U"
0L"
0[
1K"
1X
0M"
0`
b0 E"
b0 H
b0 8"
b1000 *"
b1000 _
b1000 ]"
b1100 $"
b1100 c
b1100 3#
b100 !"
b100 Z
b100 #"
b1000 ;#
b1000 0#
b0 X"
b1000 ["
b100011 D"
b0 )"
b1000 ("
b10 N
b10 V"
b0 "#
b10001000100000000010000010011 a
b10001000100000000010000010011 R"
b10001000100000000010000010011 6#
b1100 |
b1100 d
b1100 ""
1s"
1j
b1000 k"
b1000 F
b1000 n"
b1000 .#
b1000 e"
b1000 ?
b1 ^"
b1 3
b1 N"
b100 S"
b100 S
b100 ~
b100000000010000000100011 T"
b100000000010000000100011 R
b100000000010000000100011 ~"
b1000 4#
b1000 b
b1000 z
b1000 Q"
b1000 5#
b10 +
1'
1t
#100
0'
0t
#125
1?"
1\
0>"
0Y
b1 :"
b1 I
b1 U"
1L"
1[
0K"
0X
1M"
1`
b1 E"
b1 H
b1 8"
b1000 *"
b1000 _
b1000 ]"
b1000100010 $#
b1000100010 Q
b1000100010 }
b10000 $"
b10000 c
b10000 3#
b1000101010 !"
b1000101010 Z
b1000101010 #"
b10001 ;#
b10001 0#
b1000 X"
b10001 ["
b10011 D"
b1000 )"
b10001 ("
b1000000 N
b1000000 V"
b100010001 !#
b100010001 P
b100010001 W"
b100010001 ##
b100010001 "#
b10 -#
b10 9
b10 5"
b100000000010001000100011 a
b100000000010001000100011 R"
b100000000010001000100011 6#
b10000 |
b10000 d
b10000 ""
b1000 S"
b1000 S
b1000 ~
b10001000100000000010000010011 T"
b10001000100000000010000010011 R
b10001000100000000010000010011 ~"
b10 `"
b10 :
b10 O"
b0 e"
b0 ?
b1000 i"
b1000 C
b1000 )#
0f"
0@
1d"
1>
b0 ^"
b0 3
b0 N"
b1000 u"
b1000 m
b1000 x"
b1000 *#
1|"
1q
b1100 4#
b1100 b
b1100 z
b1100 Q"
b1100 5#
b11 +
1'
1t
#150
0'
0t
#175
0?"
0\
1>"
1Y
b0 :"
b0 I
b0 U"
1l
b100010001 C"
b100010001 4
b100010001 l"
0L"
0[
1K"
1X
0M"
0`
b0 E"
b0 H
b0 8"
b1000 *"
b1000 _
b1000 ]"
b1000 $#
b1000 Q
b1000 }
b10100 $"
b10100 c
b10100 3#
1?#
1L#
b0 -#
b0 9
b0 5"
b100010001 '"
b100010001 7
b100010001 B"
b10100 !"
b10100 Z
b10100 #"
b1000 ;#
b1000 0#
b100 X"
b1000 ["
b100011 D"
b100 )"
b1000 ("
b10 N
b10 V"
b100 !#
b100 P
b100 W"
b100 ##
b100 "#
b100010001000000000010000010011 a
b100010001000000000010000010011 R"
b100010001000000000010000010011 6#
b10100 |
b10100 d
b10100 ""
b1000 }"
b1000 r
b1000 +#
b1000 7#
0s"
0j
1r"
1i
b1000000 `"
b1000000 :
b1000000 O"
b1000 e"
b1000 ?
b10001 i"
b10001 C
b10001 )#
b100010001 a"
b100010001 ;
b100010001 &"
1f"
1@
0d"
0>
b1 ^"
b1 3
b1 N"
b1100 S"
b1100 S
b1100 ~
b100000000010001000100011 T"
b100000000010001000100011 R
b100000000010001000100011 ~"
b10000 4#
b10000 b
b10000 z
b10000 Q"
b10000 5#
b100 +
1'
1t
#200
0'
0t
#225
b100 Y#
b101 +
1,
1'
1t
#250
0'
0t
#275
b1 Y#
1V#
1#
b110 +
1'
1t
#300
0'
0t
#325
b1 f#
b1 h#
b111 +
1'
1t
#350
0'
0t
#375
b10 f#
b1000 +
1'
1t
#400
0'
0t
#425
b11 f#
b1001 +
1'
1t
#450
0'
0t
#475
b100 f#
b1010 +
1'
1t
#500
0'
0t
#525
b101 f#
b1011 +
1'
1t
#550
0'
0t
#575
b110 f#
b1100 +
1'
1t
#600
0'
0t
#625
b111 f#
b1101 +
1'
1t
#650
0'
0t
#675
b1000 f#
b1110 +
1'
1t
#700
0'
0t
#725
1%
b1001 f#
b1111 +
1'
1t
#750
0'
0t
#775
1B#
0%
b10 Y#
0V#
0#
1U#
b0 f#
b0 h#
b101 >#
b101 `#
b10000 +
b101 g#
b101 &
b101 v
b101 E#
b101 e#
1'
1t
#800
0'
0t
#825
0l
bx >#
bx `#
1=#
b110000000000000000000000 A#
b110000000000000000000000 ]#
1T#
1C#
1S#
b101 X#
b101 f
b101 w"
b101 I#
b100000000000000000000000 P#
b100000000000000000000000 ^#
b101 O#
b101 a#
b101 N#
b101 "
b101 w
b101 F#
b101 d#
b0 Y#
b10001 +
1'
1t
#850
0'
0t
#875
b101 >#
b101 `#
0C#
b1000 b#
1?"
1\
0>"
0Y
b1 :"
b1 I
b1 U"
0S#
b0 X#
b0 f
b0 w"
b0 I#
b100000000 !
b100000000 u
b100000000 D#
b100000000 c#
b100 C"
b100 4
b100 l"
1L"
1[
0K"
0X
1M"
1`
b1 E"
b1 H
b1 8"
b1000 *"
b1000 _
b1000 ]"
b10001000100 $#
b10001000100 Q
b10001000100 }
b11000 $"
b11000 c
b11000 3#
b0 O#
b0 a#
b0 N#
b0 "
b0 w
b0 F#
b0 d#
b0 P#
b0 ^#
b10001 K#
b1000 J#
b1000 @#
b1000 \#
b1000 _#
b100010001 7"
b100010001 E
b100010001 %"
b100010001 m"
0?#
0L#
0=#
b100000000000000000000000 A#
b100000000000000000000000 ]#
0T#
b10 -#
b10 9
b10 5"
b100 '"
b100 7
b100 B"
b10001010100 !"
b10001010100 Z
b10001010100 #"
b10 ;#
b10 0#
b1000 X"
b10 ["
b10011 D"
b1000 )"
b10 ("
b10001000 N
b10001000 V"
b1000100010 !#
b1000100010 P
b1000100010 W"
b1000100010 ##
b1000100010 "#
b100000000010010000100011 a
b100000000010010000100011 R"
b100000000010010000100011 6#
b11000 |
b11000 d
b11000 ""
b101 z"
b101 o
b101 ,"
0|"
0q
b100010001 o"
b100010001 e
b100010001 ."
b100010001 3"
b100010001 v"
b100010001 G#
1s"
1j
0r"
0i
b10 `"
b10 :
b10 O"
b100 e"
b100 ?
b1000 i"
b1000 C
b1000 )#
b100 a"
b100 ;
b100 &"
0f"
0@
1d"
1>
b0 ^"
b0 3
b0 N"
b10000 S"
b10000 S
b10000 ~
b100010001000000000010000010011 T"
b100010001000000000010000010011 R
b100010001000000000010000010011 ~"
b10100 4#
b10100 b
b10100 z
b10100 Q"
b10100 5#
b10010 +
0,
1'
1t
#900
0'
0t
#925
bx >#
bx `#
1=#
b110000000000000000000000 A#
b110000000000000000000000 ]#
1T#
0'#
0M
1C#
b100010001 ^
b100010001 \"
b100010001 &#
b100010001 <#
b0 b#
0?"
0\
1>"
1Y
b0 :"
b0 I
b0 U"
1Q#
1S#
0L"
0[
1K"
1X
0M"
0`
b0 E"
b0 H
b0 8"
b10000 $#
b10000 Q
b10000 }
b1000100010 C"
b1000100010 4
b1000100010 l"
bx X#
bx f
bx w"
bx I#
b0 !
b0 u
b0 D#
b0 c#
0l
b110000000000000000000000 P#
b110000000000000000000000 ^#
bx O#
bx a#
bx N#
bx "
bx w
bx F#
bx d#
b11100 $"
b11100 c
b11100 3#
b100100 !"
b100100 Z
b100100 #"
b1000 ;#
b1000 0#
b1000 ["
b100011 D"
b1000 ("
b10 N
b10 V"
b1000 !#
b1000 P
b1000 W"
b1000 ##
b1000 "#
b1000100010 '"
b1000100010 7
b1000100010 B"
b100 K#
b0 J#
b0 @#
b0 \#
b0 _#
b0 7"
b0 E
b0 %"
b0 m"
1?#
1L#
b100010001 -"
b100010001 s
b100010001 1"
b100010001 6"
b100010001 8#
b0 -#
b0 9
b0 5"
b110011001100000000010000010011 a
b110011001100000000010000010011 R"
b110011001100000000010000010011 6#
b11100 |
b11100 d
b11100 ""
b10100 S"
b10100 S
b10100 ~
b100000000010010000100011 T"
b100000000010010000100011 R
b100000000010010000100011 ~"
b10001000 `"
b10001000 :
b10001000 O"
b1000 e"
b1000 ?
b10 i"
b10 C
b10 )#
b1000100010 a"
b1000100010 ;
b1000100010 &"
1f"
1@
0d"
0>
b1 ^"
b1 3
b1 N"
b100010001 t"
b100010001 k
b100010001 H#
b100 o"
b100 e
b100 ."
b100 3"
b100 v"
b100 G#
0s"
0j
1r"
1i
b100010001 y"
b100010001 n
b100010001 +"
b0 z"
b0 o
b0 ,"
1|"
1q
b11000 4#
b11000 b
b11000 z
b11000 Q"
b11000 5#
b10011 +
1'
1t
#950
0'
0t
#975
b101 >#
b101 `#
0C#
b10001 b#
1'#
1M
0Q#
0S#
1?"
1\
0>"
0Y
b1 :"
b1 I
b1 U"
b0 ^
b0 \"
b0 &#
b0 <#
b0 X#
b0 f
b0 w"
b0 I#
b1000100000 !
b1000100000 u
b1000100000 D#
b1000100000 c#
b0 P#
b0 ^#
b0 O#
b0 a#
b0 N#
b0 "
b0 w
b0 F#
b0 d#
b1000 C"
b1000 4
b1000 l"
1L"
1[
0K"
0X
1M"
1`
b1 E"
b1 H
b1 8"
b1000 *"
b1000 _
b1000 ]"
b11001100110 $#
b11001100110 Q
b11001100110 }
b100000 $"
b100000 c
b100000 3#
b100 -"
b100 s
b100 1"
b100 6"
b100 8#
b10 K#
b10001 J#
b10001 @#
b10001 \#
b10001 _#
0?#
0L#
0=#
b100000000000000000000000 A#
b100000000000000000000000 ]#
0T#
b10 -#
b10 9
b10 5"
b1000 '"
b1000 7
b1000 B"
b1000100010 7"
b1000100010 E
b1000100010 %"
b1000100010 m"
b11001111110 !"
b11001111110 Z
b11001111110 #"
b10011 ;#
b10011 0#
b10011 ["
b10011 D"
b10011 ("
b11001000 N
b11001000 V"
b1100110011 !#
b1100110011 P
b1100110011 W"
b1100110011 ##
b1100110011 "#
b100000000010011000100011 a
b100000000010011000100011 R"
b100000000010011000100011 6#
b100000 |
b100000 d
b100000 ""
b100 y"
b100 n
b100 +"
bx z"
bx o
bx ,"
0|"
0q
b0 t"
b0 k
b0 H#
b1000100010 o"
b1000100010 e
b1000100010 ."
b1000100010 3"
b1000100010 v"
b1000100010 G#
1s"
1j
0r"
0i
b10 `"
b10 :
b10 O"
b1000 i"
b1000 C
b1000 )#
b1000 a"
b1000 ;
b1000 &"
b100010001 j"
b100010001 D
b100010001 4"
0f"
0@
1d"
1>
b0 ^"
b0 3
b0 N"
b11000 S"
b11000 S
b11000 ~
b110011001100000000010000010011 T"
b110011001100000000010000010011 R
b110011001100000000010000010011 ~"
b11100 4#
b11100 b
b11100 z
b11100 Q"
b11100 5#
b10100 +
1'
1t
#1000
0'
0t
