Classes/Computer_Architecture/HW/3/Verilog_exercise/Ex1_Full_Adder/file_name.vcd
$date
	Wed Oct 30 16:13:34 2019
$end
$version
	Icarus Verilog
$end
$timescale
	1ns
$end
$scope module t_Full_Adder $end
$var wire 1 ! cout $end
$var wire 1 " sum $end
$var reg 1 # a $end
$var reg 1 $ b $end
$var reg 1 % ci $end
$scope module FA_1 $end
$var wire 1 & a $end
$var wire 1 ' b $end
$var wire 1 ( ci $end
$var wire 1 ! cout $end
$var wire 1 " sum $end
$upscope $end
$upscope $end
$enddefinitions $end
#0
$dumpvars
0(
0'
0&
0%
0$
0#
0"
0!
$end
#50
1"
1#
1&
#100
0#
0&
1$
1'
#150
0"
1!
1#
1&
#200
0!
1"
0#
0&
0$
0'
1%
1(
#250
0"
1!
1#
1&
#300
0#
0&
1$
1'
#350
1"
1#
1&
#400
0!
0"
0#
0&
0$
0'
0%
0(
#450
1"
1#
1&
#500
0#
0&
1$
1'
#550
0"
1!
1#
1&
#600
0!
1"
0#
0&
0$
0'
1%
1(
#650
0"
1!
1#
1&
#700
0#
0&
1$
1'
#750
1"
1#
1&
#800
0!
0"
0#
0&
0$
0'
0%
0(
#850
1"
1#
1&
#900
0#
0&
1$
1'
#950
0"
1!
1#
1&
#1000
0!
1"
0#
0&
0$
0'
1%
1(
#1050
0"
1!
1#
1&
#1100
0#
0&
1$
1'
#1150
1"
1#
1&
#1200
0!
0"
0#
0&
0$
0'
0%
0(
#1250
1"
1#
1&
#1300
0#
0&
1$
1'
#1350
0"
1!
1#
1&
#1400
0!
1"
0#
0&
0$
0'
1%
1(
#1450
0"
1!
1#
1&
#1500
0#
0&
1$
1'
#1550
1"
1#
1&
#1600
0!
0"
0#
0&
0$
0'
0%
0(
#1650
1"
1#
1&
#1700
0#
0&
1$
1'
#1750
0"
1!
1#
1&
#1800
0!
1"
0#
0&
0$
0'
1%
1(
#1850
0"
1!
1#
1&
#1900
0#
0&
1$
1'
#1950
1"
1#
1&
#2000
0!
0"
0#
0&
0$
0'
0%
0(
#2050
1"
1#
1&
#2100
0#
0&
1$
1'
#2150
0"
1!
1#
1&
#2200
0!
1"
0#
0&
0$
0'
1%
1(
#2250
0"
1!
1#
1&
#2300
0#
0&
1$
1'
#2350
1"
1#
1&
#2400
0!
0"
0#
0&
0$
0'
0%
0(
#2450
1"
1#
1&
#2500
0#
0&
1$
1'
#2550
0"
1!
1#
1&
#2600
0!
1"
0#
0&
0$
0'
1%
1(
#2650
0"
1!
1#
1&
#2700
0#
0&
1$
1'
#2750
1"
1#
1&
#2800
0!
0"
0#
0&
0$
0'
0%
0(
#2850
1"
1#
1&
#2900
0#
0&
1$
1'
#2950
0"
1!
1#
1&
#3000
0!
1"
0#
0&
0$
0'
1%
1(
#3050
0"
1!
1#
1&
#3100
0#
0&
1$
1'
#3150
1"
1#
1&
#3200
0!
0"
0#
0&
0$
0'
0%
0(
#3250
1"
1#
1&
#3300
0#
0&
1$
1'
#3350
0"
1!
1#
1&
#3400
0!
1"
0#
0&
0$
0'
1%
1(
#3450
0"
1!
1#
1&
#3500
0#
0&
1$
1'
#3550
1"
1#
1&
#3600
0!
0"
0#
0&
0$
0'
0%
0(
#3650
1"
1#
1&
#3700
0#
0&
1$
1'
#3750
0"
1!
1#
1&
#3800
0!
1"
0#
0&
0$
0'
1%
1(
#3850
0"
1!
1#
1&
#3900
0#
0&
1$
1'
#3950
1"
1#
1&
#4000
0!
0"
0#
0&
0$
0'
0%
0(
#4050
1"
1#
1&
#4100
0#
0&
1$
1'
#4150
0"
1!
1#
1&
#4200
0!
1"
0#
0&
0$
0'
1%
1(
#4250
0"
1!
1#
1&
#4300
0#
0&
1$
1'
#4350
1"
1#
1&
#4400
0!
0"
0#
0&
0$
0'
0%
0(
#4450
1"
1#
1&
#4500
0#
0&
1$
1'
#4550
0"
1!
1#
1&
#4600
0!
1"
0#
0&
0$
0'
1%
1(
#4650
0"
1!
1#
1&
#4700
0#
0&
1$
1'
#4750
1"
1#
1&
#4800
0!
0"
0#
0&
0$
0'
0%
0(
#4850
1"
1#
1&
#4900
0#
0&
1$
1'
#4950
0"
1!
1#
1&
#5000
0!
1"
0#
0&
0$
0'
1%
1(
#5050
0"
1!
1#
1&
#5100
0#
0&
1$
1'
#5150
1"
1#
1&
#5200
0!
0"
0#
0&
0$
0'
0%
0(
#5250
1"
1#
1&
#5300
0#
0&
1$
1'
#5350
0"
1!
1#
1&
#5400
0!
1"
0#
0&
0$
0'
1%
1(
#5450
0"
1!
1#
1&
#5500
0#
0&
1$
1'
#5550
1"
1#
1&
#5600
0!
0"
0#
0&
0$
0'
0%
0(
#5650
1"
1#
1&
#5700
0#
0&
1$
1'
#5750
0"
1!
1#
1&
#5800
0!
1"
0#
0&
0$
0'
1%
1(
#5850
0"
1!
1#
1&
#5900
0#
0&
1$
1'
#5950
1"
1#
1&
#6000
0!
0"
0#
0&
0$
0'
0%
0(
#6050
1"
1#
1&
#6100
0#
0&
1$
1'
#6150
0"
1!
1#
1&
#6200
0!
1"
0#
0&
0$
0'
1%
1(
#6250
0"
1!
1#
1&
#6300
0#
0&
1$
1'
#6350
1"
1#
1&
#6400
0!
0"
0#
0&
0$
0'
0%
0(
#6450
1"
1#
1&
#6500
0#
0&
1$
1'
#6550
0"
1!
1#
1&
#6600
0!
1"
0#
0&
0$
0'
1%
1(
#6650
0"
1!
1#
1&
#6700
0#
0&
1$
1'
#6750
1"
1#
1&
#6800
0!
0"
0#
0&
0$
0'
0%
0(
#6850
1"
1#
1&
#6900
0#
0&
1$
1'
#6950
0"
1!
1#
1&
#7000
0!
1"
0#
0&
0$
0'
1%
1(
#7050
0"
1!
1#
1&
#7100
0#
0&
1$
1'
#7150
1"
1#
1&
#7200
0!
0"
0#
0&
0$
0'
0%
0(
#7250
1"
1#
1&
#7300
0#
0&
1$
1'
#7350
0"
1!
1#
1&
#7400
0!
1"
0#
0&
0$
0'
1%
1(
#7450
0"
1!
1#
1&
#7500
0#
0&
1$
1'
#7550
1"
1#
1&
#7600
0!
0"
0#
0&
0$
0'
0%
0(
#7650
1"
1#
1&
#7700
0#
0&
1$
1'
#7750
0"
1!
1#
1&
#7800
0!
1"
0#
0&
0$
0'
1%
1(
#7850
0"
1!
1#
1&
#7900
0#
0&
1$
1'
#7950
1"
1#
1&
#8000
0!
0"
0#
0&
0$
0'
0%
0(
#8050
1"
1#
1&
#8100
0#
0&
1$
1'
#8150
0"
1!
1#
1&
#8200
0!
1"
0#
0&
0$
0'
1%
1(
#8250
0"
1!
1#
1&
#8300
0#
0&
1$
1'
#8350
1"
1#
1&
#8400
0!
0"
0#
0&
0$
0'
0%
0(
#8450
1"
1#
1&
#8500
0#
0&
1$
1'
#8550
0"
1!
1#
1&
#8600
0!
1"
0#
0&
0$
0'
1%
1(
#8650
0"
1!
1#
1&
#8700
0#
0&
1$
1'
#8750
1"
1#
1&
#8800
0!
0"
0#
0&
0$
0'
0%
0(
#8850
1"
1#
1&
#8900
0#
0&
1$
1'
#8950
0"
1!
1#
1&
#9000
0!
1"
0#
0&
0$
0'
1%
1(
#9050
0"
1!
1#
1&
#9100
0#
0&
1$
1'
#9150
1"
1#
1&
#9200
0!
0"
0#
0&
0$
0'
0%
0(
#9250
1"
1#
1&
#9300
0#
0&
1$
1'
#9350
0"
1!
1#
1&
#9400
0!
1"
0#
0&
0$
0'
1%
1(
#9450
0"
1!
1#
1&
#9500
0#
0&
1$
1'
#9550
1"
1#
1&
#9600
0!
0"
0#
0&
0$
0'
0%
0(
#9650
1"
1#
1&
#9700
0#
0&
1$
1'
#9750
0"
1!
1#
1&
#9800
0!
1"
0#
0&
0$
0'
1%
1(
#9850
0"
1!
1#
1&
#9900
0#
0&
1$
1'
#9950
1"
1#
1&
#10000
0!
0"
0#
0&
0$
0'
0%
0(
#10050
1"
1#
1&
#10100
0#
0&
1$
1'
#10150
0"
1!
1#
1&
#10200
0!
1"
0#
0&
0$
0'
1%
1(
#10250
0"
1!
1#
1&
#10300
0#
0&
1$
1'
#10350
1"
1#
1&
#10400
0!
0"
0#
0&
0$
0'
0%
0(
#10450
1"
1#
1&
#10500
0#
0&
1$
1'
#10550
0"
1!
1#
1&
#10600
0!
1"
0#
0&
0$
0'
1%
1(
#10650
0"
1!
1#
1&
#10700
0#
0&
1$
1'
#10750
1"
1#
1&
#10800
0!
0"
0#
0&
0$
0'
0%
0(
#10850
1"
1#
1&
#10900
0#
0&
1$
1'
#10950
0"
1!
1#
1&
#11000
0!
1"
0#
0&
0$
0'
1%
1(
#11050
0"
1!
1#
1&
#11100
0#
0&
1$
1'
#11150
1"
1#
1&
#11200
0!
0"
0#
0&
0$
0'
0%
0(
#11250
1"
1#
1&
#11300
0#
0&
1$
1'
#11350
0"
1!
1#
1&
#11400
0!
1"
0#
0&
0$
0'
1%
1(
#11450
0"
1!
1#
1&
#11500
0#
0&
1$
1'
#11550
1"
1#
1&
#11600
0!
0"
0#
0&
0$
0'
0%
0(
#11650
1"
1#
1&
#11700
0#
0&
1$
1'
#11750
0"
1!
1#
1&
#11800
0!
1"
0#
0&
0$
0'
1%
1(
#11850
0"
1!
1#
1&
#11900
0#
0&
1$
1'
#11950
1"
1#
1&
#12000
0!
0"
0#
0&
0$
0'
0%
0(
#12050
1"
1#
1&
#12100
0#
0&
1$
1'
#12150
0"
1!
1#
1&
#12200
0!
1"
0#
0&
0$
0'
1%
1(
#12250
0"
1!
1#
1&
#12300
0#
0&
1$
1'
#12350
1"
1#
1&
#12400
0!
0"
0#
0&
0$
0'
0%
0(
#12450
1"
1#
1&
#12500
0#
0&
1$
1'
#12550
0"
1!
1#
1&
#12600
0!
1"
0#
0&
0$
0'
1%
1(
#12650
0"
1!
1#
1&
#12700
0#
0&
1$
1'
#12750
1"
1#
1&
#12800
0!
0"
0#
0&
0$
0'
0%
0(
#12850
1"
1#
1&
#12900
0#
0&
1$
1'
#12950
0"
1!
1#
1&
#13000
0!
1"
0#
0&
0$
0'
1%
1(
#13050
0"
1!
1#
1&
#13100
0#
0&
1$
1'
#13150
1"
1#
1&
#13200
0!
0"
0#
0&
0$
0'
0%
0(
#13250
1"
1#
1&
#13300
0#
0&
1$
1'
#13350
0"
1!
1#
1&
#13400
0!
1"
0#
0&
0$
0'
1%
1(
#13450
0"
1!
1#
1&
#13500
0#
0&
1$
1'
#13550
1"
1#
1&
#13600
0!
0"
0#
0&
0$
0'
0%
0(
#13650
1"
1#
1&
#13700
0#
0&
1$
1'
#13750
0"
1!
1#
1&
#13800
0!
1"
0#
0&
0$
0'
1%
1(
#13850
0"
1!
1#
1&
#13900
0#
0&
1$
1'
#13950
1"
1#
1&
#14000
0!
0"
0#
0&
0$
0'
0%
0(
#14050
1"
1#
1&
#14100
0#
0&
1$
1'
#14150
0"
1!
1#
1&
#14200
0!
1"
0#
0&
0$
0'
1%
1(
#14250
0"
1!
1#
1&
#14300
0#
0&
1$
1'
#14350
1"
1#
1&
#14400
0!
0"
0#
0&
0$
0'
0%
0(
#14450
1"
1#
1&
#14500
0#
0&
1$
1'
#14550
0"
1!
1#
1&
#14600
0!
1"
0#
0&
0$
0'
1%
1(
#14650
0"
1!
1#
1&
#14700
0#
0&
1$
1'
#14750
1"
1#
1&
#14800
0!
0"
0#
0&
0$
0'
0%
0(
#14850
1"
1#
1&
#14900
0#
0&
1$
1'
#14950
0"
1!
1#
1&
#15000
0!
1"
0#
0&
0$
0'
1%
1(
#15050
0"
1!
1#
1&
#15100
0#
0&
1$
1'
#15150
1"
1#
1&
#15200
0!
0"
0#
0&
0$
0'
0%
0(
#15250
1"
1#
1&
#15300
0#
0&
1$
1'
#15350
0"
1!
1#
1&
#15400
0!
1"
0#
0&
0$
0'
1%
1(
#15450
0"
1!
1#
1&
#15500
0#
0&
1$
1'
#15550
1"
1#
1&
#15600
0!
0"
0#
0&
0$
0'
0%
0(
#15650
1"
1#
1&
#15700
0#
0&
1$
1'
#15750
0"
1!
1#
1&
#15800
0!
1"
0#
0&
0$
0'
1%
1(
#15850
0"
1!
1#
1&
#15900
0#
0&
1$
1'
#15950
1"
1#
1&
#16000
0!
0"
0#
0&
0$
0'
0%
0(
#16050
1"
1#
1&
#16100
0#
0&
1$
1'
#16150
0"
1!
1#
1&
#16200
0!
1"
0#
0&
0$
0'
1%
1(
#16250
0"
1!
1#
1&
#16300
0#
0&
1$
1'
#16350
1"
1#
1&
#16400
0!
0"
0#
0&
0$
0'
0%
0(
#16450
1"
1#
1&
#16500
0#
0&
1$
1'
#16550
0"
1!
1#
1&
#16600
0!
1"
0#
0&
0$
0'
1%
1(
#16650
0"
1!
1#
1&
#16700
0#
0&
1$
1'
#16750
1"
1#
1&
#16800
0!
0"
0#
0&
0$
0'
0%
0(
#16850
1"
1#
1&
#16900
0#
0&
1$
1'
#16950
0"
1!
1#
1&
#17000
0!
1"
0#
0&
0$
0'
1%
1(
#17050
0"
1!
1#
1&
#17100
0#
0&
1$
1'
#17150
1"
1#
1&
#17200
0!
0"
0#
0&
0$
0'
0%
0(
#17250
1"
1#
1&
#17300
0#
0&
1$
1'
#17350
0"
1!
1#
1&
#17400
0!
1"
0#
0&
0$
0'
1%
1(
#17450
0"
1!
1#
1&
#17500
0#
0&
1$
1'
#17550
1"
1#
1&
#17600
0!
0"
0#
0&
0$
0'
0%
0(
#17650
1"
1#
1&
#17700
0#
0&
1$
1'
#17750
0"
1!
1#
1&
#17800
0!
1"
0#
0&
0$
0'
1%
1(
#17850
0"
1!
1#
1&
#17900
0#
0&
1$
1'
#17950
1"
1#
1&
#18000
0!
0"
0#
0&
0$
0'
0%
0(
#18050
1"
1#
1&
#18100
0#
0&
1$
1'
#18150
0"
1!
1#
1&
#18200
0!
1"
0#
0&
0$
0'
1%
1(
#18250
0"
1!
1#
1&
#18300
0#
0&
1$
1'
#18350
1"
1#
1&
#18400
0!
0"
0#
0&
0$
0'
0%
0(
#18450
1"
1#
1&
#18500
0#
0&
1$
1'
#18550
0"
1!
1#
1&
#18600
0!
1"
0#
0&
0$
0'
1%
1(
#18650
0"
1!
1#
1&
#18700
0#
0&
1$
1'
#18750
1"
1#
1&
#18800
0!
0"
0#
0&
0$
0'
0%
0(
#18850
1"
1#
1&
#18900
0#
0&
1$
1'
#18950
0"
1!
1#
1&
#19000
0!
1"
0#
0&
0$
0'
1%
1(
#19050
0"
1!
1#
1&
#19100
0#
0&
1$
1'
#19150
1"
1#
1&
#19200
0!
0"
0#
0&
0$
0'
0%
0(
#19250
1"
1#
1&
#19300
0#
0&
1$
1'
#19350
0"
1!
1#
1&
#19400
0!
1"
0#
0&
0$
0'
1%
1(
#19450
0"
1!
1#
1&
#19500
0#
0&
1$
1'
#19550
1"
1#
1&
#19600
0!
0"
0#
0&
0$
0'
0%
0(
#19650
1"
1#
1&
#19700
0#
0&
1$
1'
#19750
0"
1!
1#
1&
#19800
0!
1"
0#
0&
0$
0'
1%
1(
#19850
0"
1!
1#
1&
#19900
0#
0&
1$
1'
#19950
1"
1#
1&
#20000
0!
0"
0#
0&
0$
0'
0%
0(
#20050
1"
1#
1&
#20100
0#
0&
1$
1'
#20150
0"
1!
1#
1&
#20200
0!
1"
0#
0&
0$
0'
1%
1(
#20250
0"
1!
1#
1&
#20300
0#
0&
1$
1'
#20350
1"
1#
1&
#20400
0!
0"
0#
0&
0$
0'
0%
0(
#20450
1"
1#
1&
#20500
0#
0&
1$
1'
#20550
0"
1!
1#
1&
#20600
0!
1"
0#
0&
0$
0'
1%
1(
#20650
0"
1!
1#
1&
#20700
0#
0&
1$
1'
#20750
1"
1#
1&
#20800
0!
0"
0#
0&
0$
0'
0%
0(
#20850
1"
1#
1&
#20900
0#
0&
1$
1'
#20950
0"
1!
1#
1&
#21000
0!
1"
0#
0&
0$
0'
1%
1(
#21050
0"
1!
1#
1&
#21100
0#
0&
1$
1'
#21150
1"
1#
1&
#21200
0!
0"
0#
0&
0$
0'
0%
0(
#21250
1"
1#
1&
#21300
0#
0&
1$
1'
#21350
0"
1!
1#
1&
#21400
0!
1"
0#
0&
0$
0'
1%
1(
#21450
0"
1!
1#
1&
#21500
0#
0&
1$
1'
#21550
1"
1#
1&
#21600
0!
0"
0#
0&
0$
0'
0%
0(
#21650
1"
1#
1&
#21700
0#
0&
1$
1'
#21750
0"
1!
1#
1&
#21800
0!
1"
0#
0&
0$
0'
1%
1(
#21850
0"
1!
1#
1&
#21900
0#
0&
1$
1'
#21950
1"
1#
1&
#22000
0!
0"
0#
0&
0$
0'
0%
0(
#22050
1"
1#
1&
#22100
0#
0&
1$
1'
#22150
0"
1!
1#
1&
#22200
0!
1"
0#
0&
0$
0'
1%
1(
#22250
0"
1!
1#
1&
#22300
0#
0&
1$
1'
#22350
1"
1#
1&
#22400
0!
0"
0#
0&
0$
0'
0%
0(
#22450
1"
1#
1&
#22500
0#
0&
1$
1'
#22550
0"
1!
1#
1&
#22600
0!
1"
0#
0&
0$
0'
1%
1(
#22650
0"
1!
1#
1&
#22700
0#
0&
1$
1'
#22750
1"
1#
1&
#22800
0!
0"
0#
0&
0$
0'
0%
0(
#22850
1"
1#
1&
#22900
0#
0&
1$
1'
#22950
0"
1!
1#
1&
#23000
0!
1"
0#
0&
0$
0'
1%
1(
#23050
0"
1!
1#
1&
#23100
0#
0&
1$
1'
#23150
1"
1#
1&
#23200
0!
0"
0#
0&
0$
0'
0%
0(
#23250
1"
1#
1&
#23300
0#
0&
1$
1'
#23350
0"
1!
1#
1&
#23400
0!
1"
0#
0&
0$
0'
1%
1(
#23450
0"
1!
1#
1&
#23500
0#
0&
1$
1'
#23550
1"
1#
1&
#23600
0!
0"
0#
0&
0$
0'
0%
0(
#23650
1"
1#
1&
#23700
0#
0&
1$
1'
#23750
0"
1!
1#
1&
#23800
0!
1"
0#
0&
0$
0'
1%
1(
#23850
0"
1!
1#
1&
#23900
0#
0&
1$
1'
#23950
1"
1#
1&
#24000
0!
0"
0#
0&
0$
0'
0%
0(
#24050
1"
1#
1&
#24100
0#
0&
1$
1'
#24150
0"
1!
1#
1&
#24200
0!
1"
0#
0&
0$
0'
1%
1(
#24250
0"
1!
1#
1&
#24300
0#
0&
1$
1'
#24350
1"
1#
1&
#24400
0!
0"
0#
0&
0$
0'
0%
0(
#24450
1"
1#
1&
#24500
0#
0&
1$
1'
#24550
0"
1!
1#
1&
#24600
0!
1"
0#
0&
0$
0'
1%
1(
#24650
0"
1!
1#
1&
#24700
0#
0&
1$
1'
#24750
1"
1#
1&
#24800
0!
0"
0#
0&
0$
0'
0%
0(
#24850
1"
1#
1&
#24900
0#
0&
1$
1'
#24950
0"
1!
1#
1&
#25000
0!
1"
0#
0&
0$
0'
1%
1(
#25050
0"
1!
1#
1&
#25100
0#
0&
1$
1'
#25150
1"
1#
1&
#25200
0!
0"
0#
0&
0$
0'
0%
0(
#25250
1"
1#
1&
#25300
0#
0&
1$
1'
#25350
0"
1!
1#
1&
#25400
0!
1"
0#
0&
0$
0'
1%
1(
#25450
0"
1!
1#
1&
#25500
0#
0&
1$
1'
#25550
1"
1#
1&
#25600
0!
0"
0#
0&
0$
0'
0%
0(
#25650
1"
1#
1&
#25700
0#
0&
1$
1'
#25750
0"
1!
1#
1&
#25800
0!
1"
0#
0&
0$
0'
1%
1(
#25850
0"
1!
1#
1&
#25900
0#
0&
1$
1'
#25950
1"
1#
1&
#26000
0!
0"
0#
0&
0$
0'
0%
0(
#26050
1"
1#
1&
#26100
0#
0&
1$
1'
#26150
0"
1!
1#
1&
#26200
0!
1"
0#
0&
0$
0'
1%
1(
#26250
0"
1!
1#
1&
#26300
0#
0&
1$
1'
#26350
1"
1#
1&
#26400
0!
0"
0#
0&
0$
0'
0%
0(
#26450
1"
1#
1&
#26500
0#
0&
1$
1'
#26550
0"
1!
1#
1&
#26600
0!
1"
0#
0&
0$
0'
1%
1(
#26650
0"
1!
1#
1&
#26700
0#
0&
1$
1'
#26750
1"
1#
1&
#26800
0!
0"
0#
0&
0$
0'
0%
0(
#26850
1"
1#
1&
#26900
0#
0&
1$
1'
#26950
0"
1!
1#
1&
#27000
0!
1"
0#
0&
0$
0'
1%
1(
#27050
0"
1!
1#
1&
#27100
0#
0&
1$
1'
#27150
1"
1#
1&
#27200
0!
0"
0#
0&
0$
0'
0%
0(
#27250
1"
1#
1&
#27300
0#
0&
1$
1'
#27350
0"
1!
1#
1&
#27400
0!
1"
0#
0&
0$
0'
1%
1(
#27450
0"
1!
1#
1&
#27500
0#
0&
1$
1'
#27550
1"
1#
1&
#27600
0!
0"
0#
0&
0$
0'
0%
0(
#27650
1"
1#
1&
#27700
0#
0&
1$
1'
#27750
0"
1!
1#
1&
#27800
0!
1"
0#
0&
0$
0'
1%
1(
#27850
0"
1!
1#
1&
#27900
0#
0&
1$
1'
#27950
1"
1#
1&
#28000
0!
0"
0#
0&
0$
0'
0%
0(
#28050
1"
1#
1&
#28100
0#
0&
1$
1'
#28150
0"
1!
1#
1&
#28200
0!
1"
0#
0&
0$
0'
1%
1(
#28250
0"
1!
1#
1&
#28300
0#
0&
1$
1'
#28350
1"
1#
1&
#28400
0!
0"
0#
0&
0$
0'
0%
0(
#28450
1"
1#
1&
#28500
0#
0&
1$
1'
#28550
0"
1!
1#
1&
#28600
0!
1"
0#
0&
0$
0'
1%
1(
#28650
0"
1!
1#
1&
#28700
0#
0&
1$
1'
#28750
1"
1#
1&
#28800
0!
0"
0#
0&
0$
0'
0%
0(
#28850
1"
1#
1&
#28900
0#
0&
1$
1'
#28950
0"
1!
1#
1&
#29000
0!
1"
0#
0&
0$
0'
1%
1(
#29050
0"
1!
1#
1&
#29100
0#
0&
1$
1'
#29150
1"
1#
1&
#29200
0!
0"
0#
0&
0$
0'
0%
0(
#29250
1"
1#
1&
#29300
0#
0&
1$
1'
#29350
0"
1!
1#
1&
#29400
0!
1"
0#
0&
0$
0'
1%
1(
#29450
0"
1!
1#
1&
#29500
0#
0&
1$
1'
#29550
1"
1#
1&
#29600
0!
0"
0#
0&
0$
0'
0%
0(
#29650
1"
1#
1&
#29700
0#
0&
1$
1'
#29750
0"
1!
1#
1&
#29800
0!
1"
0#
0&
0$
0'
1%
1(
#29850
0"
1!
1#
1&
#29900
0#
0&
1$
1'
#29950
1"
1#
1&
#30000
0!
0"
0#
0&
0$
0'
0%
0(
#30050
1"
1#
1&
#30100
0#
0&
1$
1'
#30150
0"
1!
1#
1&
#30200
0!
1"
0#
0&
0$
0'
1%
1(
#30250
0"
1!
1#
1&
#30300
0#
0&
1$
1'
#30350
1"
1#
1&
#30400
0!
0"
0#
0&
0$
0'
0%
0(
#30450
1"
1#
1&
#30500
0#
0&
1$
1'
#30550
0"
1!
1#
1&
#30600
0!
1"
0#
0&
0$
0'
1%
1(
#30650
0"
1!
1#
1&
#30700
0#
0&
1$
1'
#30750
1"
1#
1&
#30800
0!
0"
0#
0&
0$
0'
0%
0(
#30850
1"
1#
1&
#30900
0#
0&
1$
1'
#30950
0"
1!
1#
1&
#31000
0!
1"
0#
0&
0$
0'
1%
1(
#31050
0"
1!
1#
1&
#31100
0#
0&
1$
1'
#31150
1"
1#
1&
#31200
0!
0"
0#
0&
0$
0'
0%
0(
#31250
1"
1#
1&
#31300
0#
0&
1$
1'
#31350
0"
1!
1#
1&
#31400
0!
1"
0#
0&
0$
0'
1%
1(
#31450
0"
1!
1#
1&
#31500
0#
0&
1$
1'
#31550
1"
1#
1&
#31600
0!
0"
0#
0&
0$
0'
0%
0(
#31650
1"
1#
1&
#31700
0#
0&
1$
1'
#31750
0"
1!
1#
1&
#31800
0!
1"
0#
0&
0$
0'
1%
1(
#31850
0"
1!
1#
1&
#31900
0#
0&
1$
1'
#31950
1"
1#
1&
#32000
0!
0"
0#
0&
0$
0'
0%
0(
#32050
1"
1#
1&
#32100
0#
0&
1$
1'
#32150
0"
1!
1#
1&
#32200
0!
1"
0#
0&
0$
0'
1%
1(
#32250
0"
1!
1#
1&
#32300
0#
0&
1$
1'
#32350
1"
1#
1&
#32400
0!
0"
0#
0&
0$
0'
0%
0(
#32450
1"
1#
1&
#32500
0#
0&
1$
1'
#32550
0"
1!
1#
1&
#32600
0!
1"
0#
0&
0$
0'
1%
1(
#32650
0"
1!
1#
1&
#32700
0#
0&
1$
1'
#32750
1"
1#
1&
#32800
0!
0"
0#
0&
0$
0'
0%
0(
#32850
1"
1#
1&
#32900
0#
0&
1$
1'
#32950
0"
1!
1#
1&
#33000
0!
1"
0#
0&
0$
0'
1%
1(
#33050
0"
1!
1#
1&
#33100
0#
0&
1$
1'
#33150
1"
1#
1&
#33200
0!
0"
0#
0&
0$
0'
0%
0(
#33250
1"
1#
1&
#33300
0#
0&
1$
1'
#33350
0"
1!
1#
1&
#33400
0!
1"
0#
0&
0$
0'
1%
1(
#33450
0"
1!
1#
1&
#33500
0#
0&
1$
1'
#33550
1"
1#
1&
#33600
0!
0"
0#
0&
0$
0'
0%
0(
#33650
1"
1#
1&
#33700
0#
0&
1$
1'
#33750
0"
1!
1#
1&
#33800
0!
1"
0#
0&
0$
0'
1%
1(
#33850
0"
1!
1#
1&
#33900
0#
0&
1$
1'
#33950
1"
1#
1&
#34000
0!
0"
0#
0&
0$
0'
0%
0(
#34050
1"
1#
1&
#34100
0#
0&
1$
1'
#34150
0"
1!
1#
1&
#34200
0!
1"
0#
0&
0$
0'
1%
1(
#34250
0"
1!
1#
1&
#34300
0#
0&
1$
1'
#34350
1"
1#
1&
#34400
0!
0"
0#
0&
0$
0'
0%
0(
#34450
1"
1#
1&
#34500
0#
0&
1$
1'
#34550
0"
1!
1#
1&
#34600
0!
1"
0#
0&
0$
0'
1%
1(
#34650
0"
1!
1#
1&
#34700
0#
0&
1$
1'
#34750
1"
1#
1&
#34800
0!
0"
0#
0&
0$
0'
0%
0(
#34850
1"
1#
1&
#34900
0#
0&
1$
1'
#34950
0"
1!
1#
1&
#35000
0!
1"
0#
0&
0$
0'
1%
1(
#35050
0"
1!
1#
1&
#35100
0#
0&
1$
1'
#35150
1"
1#
1&
#35200
0!
0"
0#
0&
0$
0'
0%
0(
#35250
1"
1#
1&
#35300
0#
0&
1$
1'
#35350
0"
1!
1#
1&
#35400
0!
1"
0#
0&
0$
0'
1%
1(
#35450
0"
1!
1#
1&
#35500
0#
0&
1$
1'
#35550
1"
1#
1&
#35600
0!
0"
0#
0&
0$
0'
0%
0(
#35650
1"
1#
1&
#35700
0#
0&
1$
1'
#35750
0"
1!
1#
1&
#35800
0!
1"
0#
0&
0$
0'
1%
1(
#35850
0"
1!
1#
1&
#35900
0#
0&
1$
1'
#35950
1"
1#
1&
#36000
0!
0"
0#
0&
0$
0'
0%
0(
#36050
1"
1#
1&
#36100
0#
0&
1$
1'
#36150
0"
1!
1#
1&
#36200
0!
1"
0#
0&
0$
0'
1%
1(
#36250
0"
1!
1#
1&
#36300
0#
0&
1$
1'
#36350
1"
1#
1&
#36400
0!
0"
0#
0&
0$
0'
0%
0(
#36450
1"
1#
1&
#36500
0#
0&
1$
1'
#36550
0"
1!
1#
1&
#36600
0!
1"
0#
0&
0$
0'
1%
1(
#36650
0"
1!
1#
1&
#36700
0#
0&
1$
1'
#36750
1"
1#
1&
#36800
0!
0"
0#
0&
0$
0'
0%
0(
#36850
1"
1#
1&
#36900
0#
0&
1$
1'
#36950
0"
1!
1#
1&
#37000
0!
1"
0#
0&
0$
0'
1%
1(
#37050
0"
1!
1#
1&
#37100
0#
0&
1$
1'
#37150
1"
1#
1&
#37200
0!
0"
0#
0&
0$
0'
0%
0(
#37250
1"
1#
1&
#37300
0#
0&
1$
1'
#37350
0"
1!
1#
1&
#37400
0!
1"
0#
0&
0$
0'
1%
1(
#37450
0"
1!
1#
1&
#37500
0#
0&
1$
1'
#37550
1"
1#
1&
#37600
0!
0"
0#
0&
0$
0'
0%
0(
#37650
1"
1#
1&
#37700
0#
0&
1$
1'
#37750
0"
1!
1#
1&
#37800
0!
1"
0#
0&
0$
0'
1%
1(
#37850
0"
1!
1#
1&
#37900
0#
0&
1$
1'
#37950
1"
1#
1&
#38000
0!
0"
0#
0&
0$
0'
0%
0(
#38050
1"
1#
1&
#38100
0#
0&
1$
1'
#38150
0"
1!
1#
1&
#38200
0!
1"
0#
0&
0$
0'
1%
1(
#38250
0"
1!
1#
1&
#38300
0#
0&
1$
1'
#38350
1"
1#
1&
#38400
0!
0"
0#
0&
0$
0'
0%
0(
#38450
1"
1#
1&
#38500
0#
0&
1$
1'
#38550
0"
1!
1#
1&
#38600
0!
1"
0#
0&
0$
0'
1%
1(
#38650
0"
1!
1#
1&
#38700
0#
0&
1$
1'
#38750
1"
1#
1&
#38800
0!
0"
0#
0&
0$
0'
0%
0(
#38850
1"
1#
1&
#38900
0#
0&
1$
1'
#38950
0"
1!
1#
1&
#39000
0!
1"
0#
0&
0$
0'
1%
1(
#39050
0"
1!
1#
1&
#39100
0#
0&
1$
1'
#39150
1"
1#
1&
#39200
0!
0"
0#
0&
0$
0'
0%
0(
#39250
1"
1#
1&
#39300
0#
0&
1$
1'
#39350
0"
1!
1#
1&
#39400
0!
1"
0#
0&
0$
0'
1%
1(
#39450
0"
1!
1#
1&
#39500
0#
0&
1$
1'
#39550
1"
1#
1&
#39600
0!
0"
0#
0&
0$
0'
0%
0(
#39650
1"
1#
1&
#39700
0#
0&
1$
1'
#39750
0"
1!
1#
1&
#39800
0!
1"
0#
0&
0$
0'
1%
1(
#39850
0"
1!
1#
1&
#39900
0#
0&
1$
1'
#39950
1"
1#
1&
#40000
0!
0"
0#
0&
0$
0'
0%
0(
#40050
1"
1#
1&
#40100
0#
0&
1$
1'
#40150
0"
1!
1#
1&
#40200
0!
1"
0#
0&
0$
0'
1%
1(
#40250
0"
1!
1#
1&
