Classes/Computer_Architecture/HW/Project2/project1_teamPasserby/code/Project_1.vcd
$date
	Tue Dec 10 21:12:21 2019
$end
$version
	Icarus Verilog
$end
$timescale
	1s
$end
$scope module TestBench $end
$var reg 1 ! Clk $end
$var reg 1 " Start $end
$var integer 32 # counter [31:0] $end
$var integer 32 $ flush [31:0] $end
$var integer 32 % i [31:0] $end
$var integer 32 & outfile [31:0] $end
$var integer 32 ' stall [31:0] $end
$scope module CPU $end
$var wire 4 ( EX_aluCtrl [3:0] $end
$var wire 2 ) EX_aluOp [1:0] $end
$var wire 32 * EX_aluResult [31:0] $end
$var wire 1 + EX_aluSrc $end
$var wire 32 , EX_aluSrc1 [31:0] $end
$var wire 32 - EX_aluSrc2 [31:0] $end
$var wire 2 . EX_forwardingA [1:0] $end
$var wire 2 / EX_forwardingB [1:0] $end
$var wire 2 0 EX_forwardingC [1:0] $end
$var wire 10 1 EX_funct [9:0] $end
$var wire 32 2 EX_immExtended [31:0] $end
$var wire 1 3 EX_memRead $end
$var wire 1 4 EX_memToReg $end
$var wire 1 5 EX_memWrite $end
$var wire 5 6 EX_rdAddr [4:0] $end
$var wire 1 7 EX_regWrite $end
$var wire 5 8 EX_rsAddr [4:0] $end
$var wire 32 9 EX_rsData [31:0] $end
$var wire 5 : EX_rtAddr [4:0] $end
$var wire 32 ; EX_rtData [31:0] $end
$var wire 32 < EX_rtForward [31:0] $end
$var wire 5 = EX_wbAddr [4:0] $end
$var wire 1 > ID_IFFlush $end
$var wire 2 ? ID_aluOp [1:0] $end
$var wire 2 @ ID_aluOpMux [1:0] $end
$var wire 1 A ID_aluSrc $end
$var wire 1 B ID_aluSrcMux $end
$var wire 1 C ID_branch $end
$var wire 1 D ID_equal $end
$var wire 10 E ID_funct [9:0] $end
$var wire 1 F ID_hazardDetected $end
$var wire 32 G ID_immExtended [31:0] $end
$var wire 32 H ID_immShifted [31:0] $end
$var wire 32 I ID_instr [31:0] $end
$var wire 32 J ID_instrAddr [31:0] $end
$var wire 1 K ID_memRead $end
$var wire 1 L ID_memReadMux $end
$var wire 1 M ID_memToReg $end
$var wire 1 N ID_memToRegMux $end
$var wire 1 O ID_memWrite $end
$var wire 1 P ID_memWriteMux $end
$var wire 7 Q ID_opCode [6:0] $end
$var wire 32 R ID_pcBranch [31:0] $end
$var wire 5 S ID_rdAddr [4:0] $end
$var wire 1 T ID_regWrite $end
$var wire 1 U ID_regWriteMux $end
$var wire 5 V ID_rsAddr [4:0] $end
$var wire 32 W ID_rsData [31:0] $end
$var wire 5 X ID_rtAddr [4:0] $end
$var wire 32 Y ID_rtData [31:0] $end
$var wire 5 Z ID_wbAddr [4:0] $end
$var wire 1 [ ID_wbDst $end
$var wire 1 \ ID_zero $end
$var wire 32 ] IF_instr [31:0] $end
$var wire 32 ^ IF_instrAddr [31:0] $end
$var wire 32 _ IF_instrSize [31:0] $end
$var wire 32 ` IF_pc [31:0] $end
$var wire 32 a IF_pcNext [31:0] $end
$var wire 32 b MEM_aluResult [31:0] $end
$var wire 32 c MEM_memData [31:0] $end
$var wire 1 d MEM_memRead $end
$var wire 1 e MEM_memToReg $end
$var wire 1 f MEM_memWrite $end
$var wire 1 g MEM_regWrite $end
$var wire 32 h MEM_rtData [31:0] $end
$var wire 5 i MEM_wbAddr [4:0] $end
$var wire 32 j WB_aluResult [31:0] $end
$var wire 32 k WB_memData [31:0] $end
$var wire 1 l WB_memToReg $end
$var wire 1 m WB_regWrite $end
$var wire 5 n WB_wbAddr [4:0] $end
$var wire 32 o WB_wbData [31:0] $end
$var wire 1 p clk_i $end
$var wire 1 q rst_i $end
$var wire 1 r start_i $end
$scope module PC $end
$var wire 1 s PCWrite_i $end
$var wire 1 p clk_i $end
$var wire 32 t pc_i [31:0] $end
$var wire 1 q rst_i $end
$var wire 1 r start_i $end
$var reg 32 u pc_o [31:0] $end
$upscope $end
$scope module Instruction_Memory $end
$var wire 32 v addr_i [31:0] $end
$var wire 32 w instr_o [31:0] $end
$upscope $end
$scope module Registers $end
$var wire 5 x RDaddr_i [4:0] $end
$var wire 32 y RDdata_i [31:0] $end
$var wire 5 z RS1addr_i [4:0] $end
$var wire 32 { RS1data_o [31:0] $end
$var wire 5 | RS2addr_i [4:0] $end
$var wire 32 } RS2data_o [31:0] $end
$var wire 1 m RegWrite_i $end
$var wire 1 p clk_i $end
$upscope $end
$scope module Data_Memory $end
$var wire 1 f MemWrite_i $end
$var wire 32 ~ addr_i [31:0] $end
$var wire 1 p clk_i $end
$var wire 32 !" data_i [31:0] $end
$var reg 32 "" data_o [31:0] $end
$upscope $end
$scope module PC_Adder $end
$var wire 32 #" operand1_i [31:0] $end
$var wire 32 $" operand2_i [31:0] $end
$var reg 32 %" result_o [31:0] $end
$upscope $end
$scope module Branch_Adder $end
$var wire 32 &" operand1_i [31:0] $end
$var wire 32 '" operand2_i [31:0] $end
$var reg 32 (" result_o [31:0] $end
$upscope $end
$scope module PC_Dst_MUX $end
$var wire 1 C signal_i $end
$var wire 32 )" source1_i [31:0] $end
$var wire 32 *" source2_i [31:0] $end
$var reg 32 +" output_o [31:0] $end
$upscope $end
$scope module RT_IMM_MUX $end
$var wire 1 + signal_i $end
$var wire 32 ," source1_i [31:0] $end
$var wire 32 -" source2_i [31:0] $end
$var reg 32 ." output_o [31:0] $end
$upscope $end
$scope module WB_Addr_MUX $end
$var wire 1 [ signal_i $end
$var wire 5 /" source1_i [4:0] $end
$var wire 5 0" source2_i [4:0] $end
$var reg 5 1" output_o [4:0] $end
$upscope $end
$scope module MUX_MemToReg $end
$var wire 32 2" aluResult_i [31:0] $end
$var wire 32 3" memData_i [31:0] $end
$var wire 1 l memToReg_i $end
$var reg 32 4" wbData_o [31:0] $end
$upscope $end
$scope module MUX_AluSrc1 $end
$var wire 32 5" aluForward_i [31:0] $end
$var wire 32 6" currentData_i [31:0] $end
$var wire 2 7" forwarSignal_i [1:0] $end
$var wire 32 8" memForward_i [31:0] $end
$var reg 32 9" output_o [31:0] $end
$upscope $end
$scope module MUX_AluSrc2 $end
$var wire 32 :" aluForward_i [31:0] $end
$var wire 32 ;" currentData_i [31:0] $end
$var wire 2 <" forwarSignal_i [1:0] $end
$var wire 32 =" memForward_i [31:0] $end
$var reg 32 >" output_o [31:0] $end
$upscope $end
$scope module MUX_Stall $end
$var wire 2 ?" aluOp_i [1:0] $end
$var wire 1 A aluSrc_i $end
$var wire 1 F hazardDetected_i $end
$var wire 1 K memRead_i $end
$var wire 1 M memToReg_i $end
$var wire 1 O memWrite_i $end
$var wire 1 T regWrite_i $end
$var wire 1 \ zero_i $end
$var reg 2 @" aluOp_o [1:0] $end
$var reg 1 A" aluSrc_o $end
$var reg 1 B" memRead_o $end
$var reg 1 C" memToReg_o $end
$var reg 1 D" memWrite_o $end
$var reg 1 E" regWrite_o $end
$upscope $end
$scope module ALU $end
$var wire 4 F" aluCtrl_i [3:0] $end
$var wire 32 G" aluSrc1_i [31:0] $end
$var wire 32 H" aluSrc2_i [31:0] $end
$var reg 32 I" aluResult_o [31:0] $end
$upscope $end
$scope module Control $end
$var wire 1 D equal_i $end
$var wire 7 J" opCode_i [6:0] $end
$var reg 2 K" aluOp_o [1:0] $end
$var reg 1 L" aluSrc_o $end
$var reg 1 M" branch_o $end
$var reg 1 N" flush_o $end
$var reg 1 O" memRead_o $end
$var reg 1 P" memToReg_o $end
$var reg 1 Q" memWrite_o $end
$var reg 1 R" regWrite_o $end
$var reg 1 S" wbDst_o $end
$upscope $end
$scope module ALU_Control $end
$var wire 2 T" aluOp_i [1:0] $end
$var wire 10 U" funct_i [9:0] $end
$var reg 4 V" aluCtrl_o [3:0] $end
$upscope $end
$scope module Register_IF_ID $end
$var wire 1 > IFFlush_i $end
$var wire 1 p clk_i $end
$var wire 1 F hazardDetected_i $end
$var wire 32 W" instrAddr_i [31:0] $end
$var wire 32 X" instr_i [31:0] $end
$var reg 32 Y" instrAddr_o [31:0] $end
$var reg 32 Z" instrAddr_reg [31:0] $end
$var reg 32 [" instr_o [31:0] $end
$var reg 32 \" instr_reg [31:0] $end
$upscope $end
$scope module Register_ID_EX $end
$var wire 2 ]" aluOp_i [1:0] $end
$var wire 1 B aluSrc_i $end
$var wire 1 p clk_i $end
$var wire 10 ^" funct_i [9:0] $end
$var wire 32 _" immExtended_i [31:0] $end
$var wire 1 L memRead_i $end
$var wire 1 N memToReg_i $end
$var wire 1 P memWrite_i $end
$var wire 5 `" rdAddr_i [4:0] $end
$var wire 1 U regWrite_i $end
$var wire 5 a" rsAddr_i [4:0] $end
$var wire 32 b" rsData_i [31:0] $end
$var wire 5 c" rtAddr_i [4:0] $end
$var wire 32 d" rtData_i [31:0] $end
$var wire 5 e" wbAddr_i [4:0] $end
$var reg 2 f" aluOp_o [1:0] $end
$var reg 2 g" aluOp_reg [1:0] $end
$var reg 1 h" aluSrc_o $end
$var reg 1 i" aluSrc_reg $end
$var reg 10 j" funct_o [9:0] $end
$var reg 10 k" funct_reg [9:0] $end
$var reg 32 l" immExtended_o [31:0] $end
$var reg 32 m" immExtended_reg [31:0] $end
$var reg 1 n" memRead_o $end
$var reg 1 o" memRead_reg $end
$var reg 1 p" memToReg_o $end
$var reg 1 q" memToReg_reg $end
$var reg 1 r" memWrite_o $end
$var reg 1 s" memWrite_reg $end
$var reg 5 t" rdAddr_o [4:0] $end
$var reg 5 u" rdAddr_reg [4:0] $end
$var reg 1 v" regWrite_o $end
$var reg 1 w" regWrite_reg $end
$var reg 5 x" rsAddr_o [4:0] $end
$var reg 5 y" rsAddr_reg [4:0] $end
$var reg 32 z" rsData_o [31:0] $end
$var reg 32 {" rsData_reg [31:0] $end
$var reg 5 |" rtAddr_o [4:0] $end
$var reg 5 }" rtAddr_reg [4:0] $end
$var reg 32 ~" rtData_o [31:0] $end
$var reg 32 !# rtData_reg [31:0] $end
$var reg 5 "# wbAddr_o [4:0] $end
$var reg 5 ## wbAddr_reg [4:0] $end
$upscope $end
$scope module Register_EX_MEM $end
$var wire 32 $# aluResult_i [31:0] $end
$var wire 1 p clk_i $end
$var wire 1 3 memRead_i $end
$var wire 1 4 memToReg_i $end
$var wire 1 5 memWrite_i $end
$var wire 1 7 regWrite_i $end
$var wire 32 %# rtData_i [31:0] $end
$var wire 5 &# wbAddr_i [4:0] $end
$var reg 32 '# aluResult_o [31:0] $end
$var reg 1 (# memRead_o $end
$var reg 1 )# memToReg_o $end
$var reg 1 *# memWrite_o $end
$var reg 1 +# regWrite_o $end
$var reg 32 ,# rtData_o [31:0] $end
$var reg 5 -# wbAddr_o [4:0] $end
$upscope $end
$scope module Register_MEM_WB $end
$var wire 32 .# aluResult_i [31:0] $end
$var wire 1 p clk_i $end
$var wire 32 /# memData_i [31:0] $end
$var wire 1 e memToReg_i $end
$var wire 1 g regWrite_i $end
$var wire 5 0# wbAddr_i [4:0] $end
$var reg 32 1# aluResult_o [31:0] $end
$var reg 32 2# aluResult_reg [31:0] $end
$var reg 32 3# memData_o [31:0] $end
$var reg 32 4# memData_reg [31:0] $end
$var reg 1 5# memToReg_o $end
$var reg 1 6# memToReg_reg $end
$var reg 1 7# regWrite_o $end
$var reg 1 8# regWrite_reg $end
$var reg 5 9# wbAddr_o [4:0] $end
$var reg 5 :# wbAddr_reg [4:0] $end
$upscope $end
$scope module Sign_Extend $end
$var wire 32 ;# instr_i [31:0] $end
$var reg 32 <# immExtended_o [31:0] $end
$var reg 12 =# tmp [11:0] $end
$upscope $end
$scope module Shift $end
$var wire 32 ># immExtended_i [31:0] $end
$var reg 32 ?# immShifted_o [31:0] $end
$upscope $end
$scope module Branch_Equal $end
$var wire 32 @# rsData_i [31:0] $end
$var wire 32 A# rtData_i [31:0] $end
$var reg 1 B# equal_o $end
$upscope $end
$scope module Forwarding_Unit $end
$var wire 5 C# EX_rsAddr_i [4:0] $end
$var wire 5 D# EX_rtAddr_i [4:0] $end
$var wire 1 g MEM_regWrite_i $end
$var wire 5 E# MEM_wbAddr_i [4:0] $end
$var wire 1 m WB_regWrite_i $end
$var wire 5 F# WB_wbAddr_i [4:0] $end
$var reg 2 G# Forward_A_o [1:0] $end
$var reg 2 H# Forward_B_o [1:0] $end
$var reg 2 I# Forward_C_o [1:0] $end
$upscope $end
$scope module Hazard_Detection_Unit $end
$var wire 1 3 EX_memRead_i $end
$var wire 5 J# EX_wbAddr_i [4:0] $end
$var wire 5 K# ID_rsAddr_i [4:0] $end
$var wire 5 L# ID_rtAddr_i [4:0] $end
$var reg 1 M# hazardDetected_o $end
$upscope $end
$upscope $end
$upscope $end
$enddefinitions $end
#0
$dumpvars
0M#
b0 L#
b0 K#
b0 J#
b0 I#
b0 H#
b0 G#
b0 F#
b0 E#
b0 D#
b0 C#
1B#
b0 A#
b0 @#
b0 ?#
b0 >#
b0 =#
b0 <#
b10100010011 ;#
b0 :#
b0 9#
08#
07#
06#
05#
b0 4#
b101 3#
b0 2#
b0 1#
b0 0#
b101 /#
b0 .#
b0 -#
b0 ,#
0+#
0*#
0)#
0(#
b0 '#
b0 &#
b0 %#
b0 $#
b0 ##
b0 "#
b0 !#
b0 ~"
b0 }"
b0 |"
b0 {"
b0 z"
b0 y"
b0 x"
0w"
0v"
b0 u"
b0 t"
0s"
0r"
0q"
0p"
0o"
0n"
b0 m"
b0 l"
b0 k"
b0 j"
0i"
0h"
b0 g"
b0 f"
b1010 e"
b0 d"
b0 c"
b0 b"
b0 a"
b1010 `"
b0 _"
b0 ^"
b1 ]"
b0 \"
b10100010011 ["
b0 Z"
b0 Y"
b10100010011 X"
b0 W"
b10 V"
b0 U"
b0 T"
1S"
1R"
0Q"
0P"
0O"
0N"
0M"
1L"
b1 K"
b10011 J"
b0 I"
b0 H"
b0 G"
b10 F"
1E"
0D"
0C"
0B"
1A"
b1 @"
b1 ?"
b0 >"
b0 ="
b0 <"
b0 ;"
b0 :"
b0 9"
b0 8"
b0 7"
b0 6"
b0 5"
b0 4"
b101 3"
b0 2"
b1010 1"
b1010 0"
b0 /"
b0 ."
b0 -"
b0 ,"
b100 +"
b0 *"
b100 )"
b0 ("
b0 '"
b0 &"
b100 %"
b100 $"
b0 #"
b101 ""
b0 !"
b0 ~
b0 }
b0 |
b0 {
b0 z
b0 y
b0 x
b10100010011 w
b0 v
b0 u
b100 t
1s
0r
zq
1p
b0 o
b0 n
0m
0l
b101 k
b0 j
b0 i
b0 h
0g
0f
0e
0d
b101 c
b0 b
b100 a
b100 `
b100 _
b0 ^
b10100010011 ]
0\
1[
b1010 Z
b0 Y
b0 X
b0 W
b0 V
1U
1T
b1010 S
b0 R
b10011 Q
0P
0O
0N
0M
0L
0K
b0 J
b10100010011 I
b0 H
b0 G
0F
b0 E
1D
0C
1B
1A
b1 @
b1 ?
0>
b0 =
b0 <
b0 ;
b0 :
b0 9
b0 8
07
b0 6
05
04
03
b0 2
b0 1
b0 0
b0 /
b0 .
b0 -
b0 ,
0+
b0 *
b0 )
b10 (
b0 '
b11 &
b100000 %
b0 $
b0 #
0"
1!
$end
#12
1"
1r
#25
0!
0p
#50
b1000 +"
b1000 `
b1000 t
b1010010011 ]
b1010010011 w
b1010010011 X"
b1000 %"
b1000 a
b1000 )"
b1010 "#
b1010 =
b1010 &#
b1010 J#
b1010 t"
b1010 6
1v"
17
1h"
1+
b1 f"
b1 )
b1 T"
b100 u
b100 ^
b100 v
b100 #"
b100 W"
b1 #
1!
1p
#75
0!
0p
#100
b101 1"
b101 Z
b101 e"
b1100 +"
b1100 `
b1100 t
b100 ("
b100 R
b100 *"
b101 S
b101 0"
b101 `"
b100000000001100010011 ]
b100000000001100010011 w
b100000000001100010011 X"
b1100 %"
b1100 a
b1100 )"
b100 Y"
b100 J
b100 '"
b1010010011 ["
b1010010011 I
b1010010011 ;#
b1010 -#
b1010 i
b1010 0#
b1010 E#
1+#
1g
b1000 u
b1000 ^
b1000 v
b1000 #"
b1000 W"
b10 #
1!
1p
#125
0!
0p
#150
b110 1"
b110 Z
b110 e"
b10 ?#
b10 H
b10 &"
b10000 +"
b10000 `
b10000 t
b1010 ("
b1010 R
b1010 *"
b110 S
b110 0"
b110 `"
b1 X
b1 |
b1 /"
b1 c"
b1 L#
b1 <#
b1 G
b1 _"
b1 >#
b1 =#
b10010010011 ]
b10010010011 w
b10010010011 X"
b10000 %"
b10000 a
b10000 )"
b1010 9#
b1010 n
b1010 x
b1010 F#
17#
1m
b101 "#
b101 =
b101 &#
b101 J#
b101 t"
b101 6
b1000 Y"
b1000 J
b1000 '"
b100000000001100010011 ["
b100000000001100010011 I
b100000000001100010011 ;#
b1100 u
b1100 ^
b1100 v
b1100 #"
b1100 W"
b11 #
1!
1p
#175
0!
0p
#200
b1001 1"
b1001 Z
b1001 e"
b0 ?#
b0 H
b0 &"
b1 I"
b1 *
b1 $#
b10100 +"
b10100 `
b10100 t
b1100 ("
b1100 R
b1100 *"
b1001 S
b1001 0"
b1001 `"
b0 X
b0 |
b0 /"
b0 c"
b0 L#
b0 <#
b0 G
b0 _"
b0 >#
b0 =#
b1 ."
b1 -
b1 H"
b100000000100100010011 ]
b100000000100100010011 w
b100000000100100010011 X"
b10100 %"
b10100 a
b10100 )"
b1100 Y"
b1100 J
b1100 '"
b10010010011 ["
b10010010011 I
b10010010011 ;#
b110 "#
b110 =
b110 &#
b110 J#
b110 t"
b110 6
b1 |"
b1 :
b1 D#
b1 l"
b1 2
b1 -"
b101 -#
b101 i
b101 0#
b101 E#
b10000 u
b10000 ^
b10000 v
b10000 #"
b10000 W"
b100 #
1!
1p
#225
0!
0p
#250
b0 I"
b0 *
b0 $#
b10010 1"
b10010 Z
b10010 e"
b10 ?#
b10 H
b10 &"
b11000 +"
b11000 `
b11000 t
b0 ""
b0 c
b0 /#
b0 ."
b0 -
b0 H"
b10010 ("
b10010 R
b10010 *"
b10010 S
b10010 0"
b10010 `"
b1 X
b1 |
b1 /"
b1 c"
b1 L#
b1 <#
b1 G
b1 _"
b1 >#
b1 =#
b1010010010000000011 ]
b1010010010000000011 w
b1010010010000000011 X"
b11000 %"
b11000 a
b11000 )"
b101 9#
b101 n
b101 x
b101 F#
b110 -#
b110 i
b110 0#
b110 E#
b1 '#
b1 b
b1 ~
b1 5"
b1 :"
b1 .#
b1001 "#
b1001 =
b1001 &#
b1001 J#
b1001 t"
b1001 6
b0 |"
b0 :
b0 D#
b0 l"
b0 2
b0 -"
b10000 Y"
b10000 J
b10000 '"
b100000000100100010011 ["
b100000000100100010011 I
b100000000100100010011 ;#
b10100 u
b10100 ^
b10100 v
b10100 #"
b10100 W"
b101 #
1!
1p
#275
0!
0p
#300
1C"
1N
1B"
1L
b0 @"
b0 @
b0 ]"
b1000 1"
b1000 Z
b1000 e"
1P"
1M
1O"
1K
b0 K"
b0 ?
b0 ?"
b0 ?#
b0 H
b0 &"
b1 I"
b1 *
b1 $#
b11100 +"
b11100 `
b11100 t
b10100 ("
b10100 R
b10100 *"
b10 E
b10 ^"
b1000 S
b1000 0"
b1000 `"
b0 X
b0 |
b0 /"
b0 c"
b0 L#
b1010 V
b1010 z
b1010 a"
b1010 K#
b11 Q
b11 J"
b0 <#
b0 G
b0 _"
b0 >#
b0 =#
b1 ."
b1 -
b1 H"
b101 ""
b101 c
b101 /#
b1 4"
b1 o
b1 y
b1 8"
b1 ="
b1000000101000010011 ]
b1000000101000010011 w
b1000000101000010011 X"
b11100 %"
b11100 a
b11100 )"
b10100 Y"
b10100 J
b10100 '"
b1010010010000000011 ["
b1010010010000000011 I
b1010010010000000011 ;#
b10010 "#
b10010 =
b10010 &#
b10010 J#
b10010 t"
b10010 6
b1 |"
b1 :
b1 D#
b1 l"
b1 2
b1 -"
b1001 -#
b1001 i
b1001 0#
b1001 E#
b0 '#
b0 b
b0 ~
b0 5"
b0 :"
b0 .#
b110 9#
b110 n
b110 x
b110 F#
b1 1#
b1 j
b1 2"
b0 3#
b0 k
b0 3"
b11000 u
b11000 ^
b11000 v
b11000 #"
b11000 W"
b110 #
1!
1p
#325
0!
0p
#350
0E"
0U
0A"
0B
0s
1M#
1F
0C"
0N
0B"
0L
b0 @"
b0 @
b0 ]"
b0 I"
b0 *
b0 $#
b10100 1"
b10100 Z
b10100 e"
0P"
0M
0O"
0K
b1 K"
b1 ?
b1 ?"
b100000 +"
b100000 `
b100000 t
b0 4"
b0 o
b0 y
b0 8"
b0 ="
b0 ""
b0 c
b0 /#
b0 ."
b0 -
b0 H"
b11000 ("
b11000 R
b11000 *"
b0 E
b0 ^"
b10100 S
b10100 0"
b10100 `"
b1000 V
b1000 z
b1000 a"
b1000 K#
b10011 Q
b10011 J"
b1000000011001000000010000110011 ]
b1000000011001000000010000110011 w
b1000000011001000000010000110011 X"
b100000 %"
b100000 a
b100000 )"
b1001 9#
b1001 n
b1001 x
b1001 F#
b0 1#
b0 j
b0 2"
b101 3#
b101 k
b101 3"
b10010 -#
b10010 i
b10010 0#
b10010 E#
b1 '#
b1 b
b1 ~
b1 5"
b1 :"
b1 .#
b10 j"
b10 1
b10 U"
b1000 "#
b1000 =
b1000 &#
b1000 J#
b1000 t"
b1000 6
b0 |"
b0 :
b0 D#
b1010 x"
b1010 8
b1010 C#
b0 l"
b0 2
b0 -"
1p"
14
1n"
13
b0 f"
b0 )
b0 T"
b11000 Y"
b11000 J
b11000 '"
b1000000101000010011 ["
b1000000101000010011 I
b1000000101000010011 ;#
b11100 u
b11100 ^
b11100 v
b11100 #"
b11100 W"
b111 #
1!
1p
#375
0!
0p
#400
1E"
1U
1A"
1B
b1 @"
b1 @
b1 ]"
1s
0M#
0F
b101 ""
b101 c
b101 /#
b10 G#
b10 .
b10 7"
b1 4"
b1 o
b1 y
b1 8"
b1 ="
b0 j"
b0 1
b0 U"
b10100 "#
b10100 =
b10100 &#
b10100 J#
b10100 t"
b10100 6
b1000 x"
b1000 8
b1000 C#
0v"
07
0p"
04
0n"
03
0h"
0+
b1000 -#
b1000 i
b1000 0#
b1000 E#
b0 '#
b0 b
b0 ~
b0 5"
b0 :"
b0 .#
1)#
1e
1(#
1d
b10010 9#
b10010 n
b10010 x
b10010 F#
b1 1#
b1 j
b1 2"
b0 3#
b0 k
b0 3"
b1000 #
b1 '
1!
1p
#425
0!
0p
#450
b101 W
b101 {
b101 b"
b101 @#
b101 I"
b101 *
b101 $#
0B#
0D
0A"
0B
b10 @"
b10 @
b10 ]"
b101 9"
b101 ,
b101 G"
b1 Y
b1 }
b1 d"
b1 A#
b1000 1"
b1000 Z
b1000 e"
0L"
0A
b10 K"
b10 ?
b10 ?"
b100100 +"
b100100 `
b100100 t
b101 4"
b101 o
b101 y
b101 8"
b101 ="
b1 G#
b1 .
b1 7"
b11100 ("
b11100 R
b11100 *"
b100000000 E
b100000000 ^"
b1000 S
b1000 0"
b1000 `"
b110 X
b110 |
b110 /"
b110 c"
b110 L#
b110011 Q
b110011 J"
b1001001001000010010110011 ]
b1001001001000010010110011 w
b1001001001000010010110011 X"
b100100 %"
b100100 a
b100100 )"
b1000 9#
b1000 n
b1000 x
b1000 F#
b0 1#
b0 j
b0 2"
b101 3#
b101 k
b101 3"
15#
1l
b10100 -#
b10100 i
b10100 0#
b10100 E#
0+#
0g
0)#
0e
0(#
0d
1v"
17
1h"
1+
b1 f"
b1 )
b1 T"
b11100 Y"
b11100 J
b11100 '"
b1000000011001000000010000110011 ["
b1000000011001000000010000110011 I
b1000000011001000000010000110011 ;#
b100000 u
b100000 ^
b100000 v
b100000 #"
b100000 W"
b1001 #
1!
1p
#475
0!
0p
#500
b1001 1"
b1001 Z
b1001 e"
b100 I"
b100 *
b100 $#
b0 W
b0 {
b0 b"
b0 @#
b101000 +"
b101000 `
b101000 t
b100000 ("
b100000 R
b100000 *"
b0 E
b0 ^"
b1001 S
b1001 0"
b1001 `"
b10010 X
b10010 |
b10010 /"
b10010 c"
b10010 L#
b1001 V
b1001 z
b1001 a"
b1001 K#
b1 ."
b1 -
b1 H"
b110 V"
b110 (
b110 F"
b1 >"
b1 <
b1 ,"
b1 %#
b0 ""
b0 c
b0 /#
b0 G#
b0 .
b0 7"
b0 4"
b0 o
b0 y
b0 8"
b0 ="
b10010000100110010011 ]
b10010000100110010011 w
b10010000100110010011 X"
b101000 %"
b101000 a
b101000 )"
b100000 Y"
b100000 J
b100000 '"
b1001001001000010010110011 ["
b1001001001000010010110011 I
b1001001001000010010110011 ;#
b100000000 j"
b100000000 1
b100000000 U"
b1000 "#
b1000 =
b1000 &#
b1000 J#
b1000 t"
b1000 6
b110 |"
b110 :
b110 D#
b1 ~"
b1 ;
b1 ;"
b101 z"
b101 9
b101 6"
0h"
0+
b10 f"
b10 )
b10 T"
b101 '#
b101 b
b101 ~
b101 5"
b101 :"
b101 .#
1+#
1g
b10100 9#
b10100 n
b10100 x
b10100 F#
07#
0m
05#
0l
b100100 u
b100100 ^
b100100 v
b100100 #"
b100100 W"
b1010 #
1!
1p
#525
0!
0p
#550
1A"
1B
b1 @"
b1 @
b1 ]"
b1 I"
b1 *
b1 $#
b0 Y
b0 }
b0 d"
b0 A#
b10011 1"
b10011 Z
b10011 e"
b1 W
b1 {
b1 b"
b1 @#
1L"
1A
b1 K"
b1 ?
b1 ?"
b101100 +"
b101100 `
b101100 t
b101 4"
b101 o
b101 y
b101 8"
b101 ="
b10 V"
b10 (
b10 F"
b0 9"
b0 ,
b0 G"
b100100 ("
b100100 R
b100100 *"
b10011 S
b10011 0"
b10011 `"
b0 X
b0 |
b0 /"
b0 c"
b0 L#
b10010 V
b10010 z
b10010 a"
b10010 K#
b10011 Q
b10011 J"
b1001000100100010011 ]
b1001000100100010011 w
b1001000100100010011 X"
b101100 %"
b101100 a
b101100 )"
b101 1#
b101 j
b101 2"
b0 3#
b0 k
b0 3"
17#
1m
b1000 -#
b1000 i
b1000 0#
b1000 E#
b1 ,#
b1 h
b1 !"
b100 '#
b100 b
b100 ~
b100 5"
b100 :"
b100 .#
b0 j"
b0 1
b0 U"
b1001 "#
b1001 =
b1001 &#
b1001 J#
b1001 t"
b1001 6
b10010 |"
b10010 :
b10010 D#
b1001 x"
b1001 8
b1001 C#
b0 z"
b0 9
b0 6"
b100100 Y"
b100100 J
b100100 '"
b10010000100110010011 ["
b10010000100110010011 I
b10010000100110010011 ;#
b101000 u
b101000 ^
b101000 v
b101000 #"
b101000 W"
b1011 #
1!
1p
#575
0!
0p
#600
1B#
1D
b10010 1"
b10010 Z
b10010 e"
b0 W
b0 {
b0 b"
b0 @#
b110000 +"
b110000 `
b110000 t
b101000 ("
b101000 R
b101000 *"
b10010 S
b10010 0"
b10010 `"
b1001 V
b1001 z
b1001 a"
b1001 K#
b0 ."
b0 -
b0 H"
b0 >"
b0 <
b0 ,"
b0 %#
b1 9"
b1 ,
b1 G"
b100 4"
b100 o
b100 y
b100 8"
b100 ="
b10011000010010010011 ]
b10011000010010010011 w
b10011000010010010011 X"
b110000 %"
b110000 a
b110000 )"
b101000 Y"
b101000 J
b101000 '"
b1001000100100010011 ["
b1001000100100010011 I
b1001000100100010011 ;#
b10011 "#
b10011 =
b10011 &#
b10011 J#
b10011 t"
b10011 6
b0 |"
b0 :
b0 D#
b10010 x"
b10010 8
b10010 C#
b0 ~"
b0 ;
b0 ;"
b1 z"
b1 9
b1 6"
1h"
1+
b1 f"
b1 )
b1 T"
b1001 -#
b1001 i
b1001 0#
b1001 E#
b1 '#
b1 b
b1 ~
b1 5"
b1 :"
b1 .#
b1000 9#
b1000 n
b1000 x
b1000 F#
b100 1#
b100 j
b100 2"
b101100 u
b101100 ^
b101100 v
b101100 #"
b101100 W"
b1100 #
1!
1p
#625
0!
0p
#650
b1 I"
b1 *
b1 $#
b1001 1"
b1001 Z
b1001 e"
b110100 +"
b110100 `
b110100 t
b1 4"
b1 o
b1 y
b1 8"
b1 ="
b1 G#
b1 .
b1 7"
b1 9"
b1 ,
b1 G"
b101100 ("
b101100 R
b101100 *"
b1001 S
b1001 0"
b1001 `"
b10011 V
b10011 z
b10011 a"
b10011 K#
b10101000000010001100011 ]
b10101000000010001100011 w
b10101000000010001100011 X"
b110100 %"
b110100 a
b110100 )"
b1001 9#
b1001 n
b1001 x
b1001 F#
b1 1#
b1 j
b1 2"
b10011 -#
b10011 i
b10011 0#
b10011 E#
b0 ,#
b0 h
b0 !"
b10010 "#
b10010 =
b10010 &#
b10010 J#
b10010 t"
b10010 6
b1001 x"
b1001 8
b1001 C#
b0 z"
b0 9
b0 6"
b101100 Y"
b101100 J
b101100 '"
b10011000010010010011 ["
b10011000010010010011 I
b10011000010010010011 ;#
b110000 u
b110000 ^
b110000 v
b110000 #"
b110000 W"
b1101 #
1!
1p
#675
0!
0p
