Classes/Computer_Architecture/HW/4/code/Project_1.vcd
$date
	Mon Dec  9 19:36:39 2019
$end
$version
	Icarus Verilog
$end
$timescale
	1s
$end
$scope module TestBench $end
$var reg 1 ! Clk $end
$var reg 1 " Start $end
$var integer 32 # counter [31:0] $end
$var integer 32 $ flush [31:0] $end
$var integer 32 % i [31:0] $end
$var integer 32 & outfile [31:0] $end
$var integer 32 ' stall [31:0] $end
$scope module CPU $end
$var wire 4 ( EX_aluCtrl [3:0] $end
$var wire 32 ) EX_aluForwarding [31:0] $end
$var wire 2 * EX_aluOp [1:0] $end
$var wire 32 + EX_aluResult [31:0] $end
$var wire 1 , EX_aluSrc $end
$var wire 32 - EX_aluSrc1 [31:0] $end
$var wire 32 . EX_aluSrc2 [31:0] $end
$var wire 2 / EX_forwardingA [1:0] $end
$var wire 2 0 EX_forwardingB [1:0] $end
$var wire 10 1 EX_funct [9:0] $end
$var wire 32 2 EX_immExtended [31:0] $end
$var wire 32 3 EX_memForwarding [31:0] $end
$var wire 1 4 EX_memRead $end
$var wire 1 5 EX_memToReg $end
$var wire 1 6 EX_memWrite $end
$var wire 5 7 EX_rdAddr [4:0] $end
$var wire 1 8 EX_regWrite $end
$var wire 5 9 EX_rsAddr [4:0] $end
$var wire 32 : EX_rsData [31:0] $end
$var wire 5 ; EX_rtAddr [4:0] $end
$var wire 32 < EX_rtData [31:0] $end
$var wire 32 = EX_rt_immMuxOutput [31:0] $end
$var wire 5 > EX_wbAddr [4:0] $end
$var wire 1 ? EX_wbDst $end
$var wire 1 @ ID_IFFlush $end
$var wire 2 A ID_aluOp [1:0] $end
$var wire 2 B ID_aluOpMux [1:0] $end
$var wire 1 C ID_aluSrc $end
$var wire 1 D ID_aluSrcMux $end
$var wire 1 E ID_branch $end
$var wire 1 F ID_equal $end
$var wire 10 G ID_funct [9:0] $end
$var wire 1 H ID_hazardDetected $end
$var wire 12 I ID_imm [11:0] $end
$var wire 32 J ID_immExtended [31:0] $end
$var wire 32 K ID_immShifted [31:0] $end
$var wire 32 L ID_instr [31:0] $end
$var wire 32 M ID_instrAddr [31:0] $end
$var wire 1 N ID_memRead $end
$var wire 1 O ID_memReadMux $end
$var wire 1 P ID_memToReg $end
$var wire 1 Q ID_memToRegMux $end
$var wire 1 R ID_memWrite $end
$var wire 1 S ID_memWriteMux $end
$var wire 7 T ID_opCode [6:0] $end
$var wire 32 U ID_pcBranch [31:0] $end
$var wire 5 V ID_rdAddr [4:0] $end
$var wire 1 W ID_regWrite $end
$var wire 1 X ID_regWriteMux $end
$var wire 5 Y ID_rsAddr [4:0] $end
$var wire 32 Z ID_rsData [31:0] $end
$var wire 5 [ ID_rtAddr [4:0] $end
$var wire 32 \ ID_rtData [31:0] $end
$var wire 1 ] ID_wbDst $end
$var wire 1 ^ ID_wbDstMux $end
$var wire 1 _ ID_zero $end
$var wire 32 ` IF_instr [31:0] $end
$var wire 32 a IF_instrAddr [31:0] $end
$var wire 32 b IF_instrSize [31:0] $end
$var wire 32 c IF_pc [31:0] $end
$var wire 32 d IF_pcNext [31:0] $end
$var wire 32 e MEM_aluResult [31:0] $end
$var wire 32 f MEM_aluSrc2 [31:0] $end
$var wire 32 g MEM_memData [31:0] $end
$var wire 1 h MEM_memRead $end
$var wire 1 i MEM_memToReg $end
$var wire 1 j MEM_memWrite $end
$var wire 1 k MEM_regWrite $end
$var wire 5 l MEM_wbAddr [4:0] $end
$var wire 32 m WB_aluResult [31:0] $end
$var wire 32 n WB_memData [31:0] $end
$var wire 1 o WB_memToReg $end
$var wire 1 p WB_regWrite $end
$var wire 5 q WB_wbAddr [4:0] $end
$var wire 32 r WB_wbData [31:0] $end
$var wire 1 s clk_i $end
$var wire 1 t rst_i $end
$var wire 1 u start_i $end
$scope module PC $end
$var wire 1 v PCWrite_i $end
$var wire 1 s clk_i $end
$var wire 32 w pc_i [31:0] $end
$var wire 1 t rst_i $end
$var wire 1 u start_i $end
$var reg 32 x pc_o [31:0] $end
$upscope $end
$scope module Instruction_Memory $end
$var wire 32 y addr_i [31:0] $end
$var wire 32 z instr_o [31:0] $end
$upscope $end
$scope module Registers $end
$var wire 5 { RDaddr_i [4:0] $end
$var wire 32 | RDdata_i [31:0] $end
$var wire 5 } RS1addr_i [4:0] $end
$var wire 32 ~ RS1data_o [31:0] $end
$var wire 5 !" RS2addr_i [4:0] $end
$var wire 32 "" RS2data_o [31:0] $end
$var wire 1 p RegWrite_i $end
$var wire 1 s clk_i $end
$upscope $end
$scope module Data_Memory $end
$var wire 1 j MemWrite_i $end
$var wire 32 #" addr_i [31:0] $end
$var wire 1 s clk_i $end
$var wire 32 $" data_i [31:0] $end
$var wire 32 %" data_o [31:0] $end
$upscope $end
$scope module PC_Adder $end
$var wire 32 &" operand1_i [31:0] $end
$var wire 32 '" operand2_i [31:0] $end
$var wire 32 (" result_o [31:0] $end
$upscope $end
$scope module Branch_Adder $end
$var wire 32 )" operand1_i [31:0] $end
$var wire 32 *" operand2_i [31:0] $end
$var wire 32 +" result_o [31:0] $end
$upscope $end
$scope module PC_Dst_MUX $end
$var wire 32 ," output_o [31:0] $end
$var wire 1 E signal_i $end
$var wire 32 -" source1_i [31:0] $end
$var wire 32 ." source2_i [31:0] $end
$upscope $end
$scope module RT_IMM_MUX $end
$var wire 32 /" output_o [31:0] $end
$var wire 1 , signal_i $end
$var wire 32 0" source1_i [31:0] $end
$var wire 32 1" source2_i [31:0] $end
$upscope $end
$scope module WB_Addr_MUX $end
$var wire 5 2" output_o [4:0] $end
$var wire 1 ? signal_i $end
$var wire 5 3" source1_i [4:0] $end
$var wire 5 4" source2_i [4:0] $end
$upscope $end
$scope module MUX_MemToReg $end
$var wire 32 5" aluResult_i [31:0] $end
$var wire 32 6" memData_i [31:0] $end
$var wire 1 o memToReg_i $end
$var wire 32 7" wbData_o [31:0] $end
$upscope $end
$scope module MUX_AluSrc1 $end
$var wire 32 8" aluForward_i [31:0] $end
$var wire 32 9" currentData_i [31:0] $end
$var wire 2 :" forwarSignal_i [1:0] $end
$var wire 32 ;" memForward_i [31:0] $end
$var wire 32 <" output_o [31:0] $end
$upscope $end
$scope module MUX_AluSrc2 $end
$var wire 32 =" aluForward_i [31:0] $end
$var wire 32 >" currentData_i [31:0] $end
$var wire 2 ?" forwarSignal_i [1:0] $end
$var wire 32 @" memForward_i [31:0] $end
$var wire 32 A" output_o [31:0] $end
$upscope $end
$scope module MUX_Stall $end
$var wire 2 B" aluOp_i [1:0] $end
$var wire 2 C" aluOp_o [1:0] $end
$var wire 1 C aluSrc_i $end
$var wire 1 D aluSrc_o $end
$var wire 1 H hazardDetected_i $end
$var wire 1 N memRead_i $end
$var wire 1 O memRead_o $end
$var wire 1 P memToReg_i $end
$var wire 1 Q memToReg_o $end
$var wire 1 R memWrite_i $end
$var wire 1 S memWrite_o $end
$var wire 1 W regWrite_i $end
$var wire 1 X regWrite_o $end
$var wire 1 ] wbDst_i $end
$var wire 1 ^ wbDst_o $end
$var wire 1 _ zero_i $end
$upscope $end
$scope module ALU $end
$var wire 4 D" aluCtrl_i [3:0] $end
$var wire 32 E" aluSrc1_i [31:0] $end
$var wire 32 F" aluSrc2_i [31:0] $end
$var reg 32 G" aluResult_o [31:0] $end
$upscope $end
$scope module Control $end
$var wire 2 H" aluOp_o [1:0] $end
$var wire 1 C aluSrc_o $end
$var wire 1 E branch_o $end
$var wire 1 F equal_i $end
$var wire 1 @ flush_o $end
$var wire 1 N memRead_o $end
$var wire 1 P memToReg_o $end
$var wire 1 R memWrite_o $end
$var wire 7 I" opCode_i [6:0] $end
$var wire 1 W regWrite_o $end
$var wire 1 ] wbDst_o $end
$upscope $end
$scope module ALU_Control $end
$var wire 2 J" aluOp_i [1:0] $end
$var wire 10 K" funct_i [9:0] $end
$var reg 4 L" aluCtrl_o [3:0] $end
$upscope $end
$scope module Register_IF_ID $end
$var wire 1 @ IFFlush_i $end
$var wire 1 s clk_i $end
$var wire 1 H hazardDetected_i $end
$var wire 32 M" instrAddr_i [31:0] $end
$var wire 32 N" instr_i [31:0] $end
$var reg 32 O" instrAddr_o [31:0] $end
$var reg 32 P" instr_o [31:0] $end
$upscope $end
$scope module Register_ID_EX $end
$var wire 2 Q" aluOp_i [1:0] $end
$var wire 1 D aluSrc_i $end
$var wire 1 s clk_i $end
$var wire 10 R" funct_i [9:0] $end
$var wire 32 S" immExtended_i [31:0] $end
$var wire 1 O memRead_i $end
$var wire 1 Q memToReg_i $end
$var wire 1 S memWrite_i $end
$var wire 5 T" rdAddr_i [4:0] $end
$var wire 1 X regWrite_i $end
$var wire 5 U" rsAddr_i [4:0] $end
$var wire 32 V" rsData_i [31:0] $end
$var wire 5 W" rtAddr_i [4:0] $end
$var wire 32 X" rtData_i [31:0] $end
$var wire 1 ^ wbDst_i $end
$var reg 2 Y" aluOp_o [1:0] $end
$var reg 1 Z" aluSrc_o $end
$var reg 10 [" funct_o [9:0] $end
$var reg 32 \" immExtended_o [31:0] $end
$var reg 1 ]" memRead_o $end
$var reg 1 ^" memToReg_o $end
$var reg 1 _" memWrite_o $end
$var reg 5 `" rdAddr_o [4:0] $end
$var reg 1 a" regWrite_o $end
$var reg 5 b" rsAddr_o [4:0] $end
$var reg 32 c" rsData_o [31:0] $end
$var reg 5 d" rtAddr_o [4:0] $end
$var reg 32 e" rtData_o [31:0] $end
$var reg 1 f" wbDst_o $end
$upscope $end
$scope module Register_EX_MEM $end
$var wire 32 g" aluResult_i [31:0] $end
$var wire 32 h" aluSrc2_i [31:0] $end
$var wire 1 s clk_i $end
$var wire 1 4 memRead_i $end
$var wire 1 5 memToReg_i $end
$var wire 1 6 memWrite_i $end
$var wire 1 8 regWrite_i $end
$var wire 5 i" wbAddr_i [4:0] $end
$var reg 32 j" aluResult_o [31:0] $end
$var reg 32 k" aluSrc2_o [31:0] $end
$var reg 1 l" memRead_o $end
$var reg 1 m" memToReg_o $end
$var reg 1 n" memWrite_o $end
$var reg 1 o" regWrite_o $end
$var reg 5 p" wbAddr_o [4:0] $end
$upscope $end
$scope module Register_MEM_WB $end
$var wire 32 q" aluResult_i [31:0] $end
$var wire 1 s clk_i $end
$var wire 32 r" memData_i [31:0] $end
$var wire 1 i memToReg_i $end
$var wire 1 k regWrite_i $end
$var wire 5 s" wbAddr_i [4:0] $end
$var reg 32 t" aluResult_o [31:0] $end
$var reg 32 u" memData_o [31:0] $end
$var reg 1 v" memToReg_o $end
$var reg 1 w" regWrite_o $end
$var reg 5 x" wbAddr_o [4:0] $end
$upscope $end
$scope module Sign_Extend $end
$var wire 32 y" immExtended_o [31:0] $end
$var wire 12 z" imm_i [11:0] $end
$upscope $end
$scope module Shift $end
$var wire 32 {" immExtended_i [31:0] $end
$var wire 32 |" immShifted_o [31:0] $end
$upscope $end
$scope module Branch_Equal $end
$var wire 1 F equal_o $end
$var wire 32 }" rsData_i [31:0] $end
$var wire 32 ~" rtData_i [31:0] $end
$upscope $end
$scope module Forwarding_Unit $end
$var wire 1 k EX_MEM_RegWrite_i $end
$var wire 5 !# EX_MEM_RegisterRd_i [4:0] $end
$var wire 5 "# ID_EX_RegisterRs1_i [4:0] $end
$var wire 5 ## ID_EX_RegisterRs2_i [4:0] $end
$var wire 1 p MEM_WB_RegWrite_i $end
$var wire 5 $# MEM_WB_RegisterRd_i [4:0] $end
$var reg 2 %# Forward_A_o [1:0] $end
$var reg 2 &# Forward_B_o [1:0] $end
$upscope $end
$scope module Hazard_Detection_Unit $end
$var wire 1 4 EX_memRead_i $end
$var wire 5 '# EX_wbAddr_i [4:0] $end
$var wire 5 (# ID_rsAddr_i [4:0] $end
$var wire 5 )# ID_rtAddr_i [4:0] $end
$var reg 1 *# hazardDetected_o $end
$upscope $end
$upscope $end
$upscope $end
$enddefinitions $end
#0
$dumpvars
x*#
b0 )#
b0 (#
b0 '#
b0 &#
b0 %#
b0 $#
b0 ##
b0 "#
b0 !#
b0 ~"
b0 }"
b0 |"
b0 {"
b0 z"
b0 y"
b0 x"
0w"
0v"
b101 u"
b0 t"
b0 s"
bx r"
bx q"
b0 p"
0o"
0n"
0m"
0l"
bx k"
bx j"
b0 i"
bx000000000000 h"
bx g"
xf"
b0 e"
b0 d"
b0 c"
b0 b"
xa"
b0 `"
x_"
x^"
x]"
bx000000000000 \"
b0 ["
xZ"
bx Y"
b0 X"
b0 W"
b0 V"
b0 U"
b101 T"
b0 S"
b0 R"
bx0 Q"
b1010110011 P"
b0 O"
b1010110011 N"
b0 M"
b10 L"
b0 K"
bx J"
b110011 I"
b10 H"
bx G"
bx000000000000 F"
b0 E"
b10 D"
bx0 C"
b10 B"
bx000000000000 A"
bz @"
b0 ?"
bx000000000000 >"
bz ="
b0 <"
bz ;"
b0 :"
b0 9"
bz 8"
b0 7"
b101 6"
b0 5"
b0 4"
b0 3"
b0 2"
bx000000000000 1"
b0 0"
bx000000000000 /"
b0 ."
b100 -"
b100 ,"
b0 +"
b0 *"
b0 )"
b100 ("
b100 '"
b0 &"
bx %"
bx $"
bx #"
b0 ""
b0 !"
b0 ~
b0 }
b0 |
b101 {
b1010110011 z
b0 y
b0 x
b100 w
1v
0u
zt
1s
b0 r
b0 q
0p
0o
b101 n
b0 m
b0 l
0k
0j
0i
0h
bx g
bx f
bx e
b100 d
b100 c
b100 b
b0 a
b1010110011 `
0_
x^
1]
b0 \
b0 [
b0 Z
b0 Y
xX
1W
b101 V
b0 U
b110011 T
0S
0R
0Q
0P
0O
0N
b0 M
b1010110011 L
b0 K
b0 J
b0 I
xH
b0 G
1F
0E
0D
0C
bx0 B
b10 A
0@
x?
b0 >
bx000000000000 =
b0 <
b0 ;
b0 :
b0 9
x8
b0 7
x6
x5
x4
bz 3
bx000000000000 2
b0 1
b0 0
b0 /
bx000000000000 .
b0 -
x,
bx +
bx *
bz )
b10 (
b0 '
b11 &
b100000 %
b0 $
b0 #
0"
1!
$end
#12
1"
1u
#25
0!
0s
#50
b101000000000001100010011 `
b101000000000001100010011 z
b101000000000001100010011 N"
b1000 c
b1000 w
b1000 ,"
b100 x
b1000 d
b1000 ("
b1000 -"
b100 a
b100 y
b100 &"
b100 M"
b0 G"
b0 +
b0 g"
b0 .
b0 A"
b0 F"
b0 h"
1X
1^
b10 B
b10 C"
b10 Q"
bx r
bx |
bx 7"
b0x0x >
b0x0x 2"
b0x0x i"
b0x0x '#
0*#
0H
b0 =
b0 /"
b0 >"
b1 #
bx t"
bx m
bx 5"
bx u"
bx n
bx 6"
xw"
xp
bx000000000000 k"
bx000000000000 f
bx000000000000 $"
xo"
xk
b101 `"
b101 7
b101 4"
b0 \"
b0 2
b0 1"
0^"
05
0_"
06
0]"
04
0Z"
0,
bx0 Y"
bx0 *
bx0 J"
1!
1s
#75
0!
0s
#100
b101010000000100011 `
b101010000000100011 z
b101010000000100011 N"
b1100 c
b1100 w
b1100 ,"
b1000 x
b1100 d
b1100 ("
b1100 -"
b1000 a
b1000 y
b1000 &"
b1000 M"
b1 B
b1 C"
b1 Q"
1D
b10100 K
b10100 )"
b10100 |"
b1 A
b1 B"
b1 H"
1C
b1010 J
b1010 S"
b1010 y"
b1010 {"
b1010 I
b1010 z"
b110 V
b110 {
b110 T"
b1010 [
b1010 !"
b1010 W"
b1010 )#
b10011 T
b10011 I"
b101 >
b101 2"
b101 i"
b101 '#
b101 g
b101 %"
b101 r"
b100 O"
b11000 U
b11000 +"
b11000 ."
b100 M
b100 *"
b101000000000001100010011 P"
b101000000000001100010011 L
1a"
18
1f"
1?
b10 Y"
b10 *
b10 J"
b0x0x p"
b0x0x l
b0x0x s"
b0x0x !#
b0 k"
b0 f
b0 $"
b0 j"
b0 e
b0 #"
b0 q"
b10 #
1!
1s
#125
0!
0s
#150
b11000101010001000100011 `
b11000101010001000100011 z
b11000101010001000100011 N"
b10000 c
b10000 w
b10000 ,"
b1100 x
b10000 d
b10000 ("
b10000 -"
b1100 a
b1100 y
b1100 &"
b1100 M"
b1010 G"
b1010 +
b1010 g"
b0 B
b0 C"
b0 Q"
0^
0X
b1010 .
b1010 A"
b1010 F"
b1010 h"
b0 A
b0 B"
b0 H"
0]
1S
0W
b0 K
b0 )"
b0 |"
1R
b0 r
b0 |
b0 7"
b110 >
b110 2"
b110 i"
b110 '#
b1010 =
b1010 /"
b1010 >"
b10 G
b10 R"
b0 J
b0 S"
b0 y"
b0 {"
b0 I
b0 z"
b0 V
b0 {
b0 T"
b0 [
b0 !"
b0 W"
b0 )#
b101 Y
b101 }
b101 U"
b101 (#
b100011 T
b100011 I"
b11 #
b101 x"
b101 q
b101 $#
b0 t"
b0 m
b0 5"
b101 u"
b101 n
b101 6"
1w"
1p
b101 p"
b101 l
b101 s"
b101 !#
1o"
1k
b110 `"
b110 7
b110 4"
b1010 d"
b1010 ;
b1010 3"
b1010 ##
b1010 \"
b1010 2
b1010 1"
1Z"
1,
b1 Y"
b1 *
b1 J"
b1000 O"
b1000 U
b1000 +"
b1000 ."
b1000 M
b1000 *"
b101010000000100011 P"
b101010000000100011 L
1!
1s
#175
0!
0s
#200
b10000101010111100000011 `
b10000101010111100000011 z
b10000101010111100000011 N"
b10100 c
b10100 w
b10100 ,"
b10000 x
b10100 d
b10100 ("
b10100 -"
b10000 a
b10000 y
b10000 &"
b10000 M"
b0 G"
b0 +
b0 g"
b0 .
b0 A"
b0 F"
b0 h"
b1100 K
b1100 )"
b1100 |"
b110 J
b110 S"
b110 y"
b110 {"
b110 I
b110 z"
b100 V
b100 {
b100 T"
b110 [
b110 !"
b110 W"
b110 )#
b0 =
b0 /"
b0 >"
b0 >
b0 2"
b0 i"
b0 '#
b0 g
b0 %"
b0 r"
b1100 O"
b11000 U
b11000 +"
b11000 ."
b1100 M
b1100 *"
b11000101010001000100011 P"
b11000101010001000100011 L
b10 ["
b10 1
b10 K"
b0 `"
b0 7
b0 4"
b0 d"
b0 ;
b0 3"
b0 ##
b101 b"
b101 9
b101 "#
b0 \"
b0 2
b0 1"
0a"
08
1_"
16
0f"
0?
b0 Y"
b0 *
b0 J"
b110 p"
b110 l
b110 s"
b110 !#
b1010 k"
b1010 f
b1010 $"
b1010 j"
b1010 e
b1010 #"
b1010 q"
b100 #
1!
1s
#225
0!
0s
#250
b11011110000111110110011 `
b11011110000111110110011 z
b11011110000111110110011 N"
b11000 c
b11000 w
b11000 ,"
b10100 x
b11000 d
b11000 ("
b11000 -"
b10100 a
b10100 y
b10100 &"
b10100 M"
b110 G"
b110 +
b110 g"
b110 .
b110 A"
b110 F"
b110 h"
1O
0S
1Q
b1000 K
b1000 )"
b1000 |"
1N
0R
1P
b110 >
b110 2"
b110 i"
b110 '#
b110 =
b110 /"
b110 >"
b100 J
b100 S"
b100 y"
b100 {"
b100 I
b100 z"
b11110 V
b11110 {
b11110 T"
b100 [
b100 !"
b100 W"
b100 )#
b11 T
b11 I"
b101 #
b0 x"
b0 q
b0 $#
b0 u"
b0 n
b0 6"
0w"
0p
b0 p"
b0 l
b0 s"
b0 !#
b0 k"
b0 f
b0 $"
b0 j"
b0 e
b0 #"
b0 q"
0o"
0k
1n"
1j
b100 `"
b100 7
b100 4"
b110 d"
b110 ;
b110 3"
b110 ##
b110 \"
b110 2
b110 1"
b10000 O"
b11000 U
b11000 +"
b11000 ."
b10000 M
b10000 *"
b10000101010111100000011 P"
b10000101010111100000011 L
1!
1s
#275
0!
0s
#300
b110100000000001110010011 `
b110100000000001110010011 z
b110100000000001110010011 N"
b11100 c
b11100 w
b11100 ,"
b11000 x
b11100 d
b11100 ("
b11100 -"
b11000 a
b11000 y
b11000 &"
b11000 M"
1^
1X
b100 G"
b100 +
b100 g"
b10 B
b10 C"
b10 Q"
0D
1]
0O
0Q
1W
b100 .
b100 A"
b100 F"
b100 h"
b1100 K
b1100 )"
b1100 |"
b10 A
b10 B"
b10 H"
0C
0N
0P
b0 G
b0 R"
b110 J
b110 S"
b110 y"
b110 {"
b110 I
b110 z"
b11111 V
b11111 {
b11111 T"
b110 [
b110 !"
b110 W"
b110 )#
b11110 Y
b11110 }
b11110 U"
b11110 (#
b110011 T
b110011 I"
b100 >
b100 2"
b100 i"
b100 '#
b100 =
b100 /"
b100 >"
b110 g
b110 %"
b110 r"
b10100 O"
b100000 U
b100000 +"
b100000 ."
b10100 M
b10100 *"
b11011110000111110110011 P"
b11011110000111110110011 L
b11110 `"
b11110 7
b11110 4"
b100 d"
b100 ;
b100 3"
b100 ##
b100 \"
b100 2
b100 1"
1^"
15
0_"
06
1]"
14
b110 p"
b110 l
b110 s"
b110 !#
b110 k"
b110 f
b110 $"
b110 j"
b110 e
b110 #"
b110 q"
b110 #
1!
1s
#325
0!
0s
#350
b10011000110000111000110011 `
b10011000110000111000110011 z
b10011000110000111000110011 N"
b100000 c
b100000 w
b100000 ,"
b11100 x
b100000 d
b100000 ("
b100000 -"
b11100 a
b11100 y
b11100 &"
b11100 M"
b0 G"
b0 +
b0 g"
b0 .
b0 A"
b0 F"
b0 h"
b1 B
b1 C"
b1 Q"
1D
b11010 K
b11010 )"
b11010 |"
b1 A
b1 B"
b1 H"
1C
b100 r
b100 |
b100 7"
b0 g
b0 %"
b0 r"
b11111 >
b11111 2"
b11111 i"
b11111 '#
b0 =
b0 /"
b0 >"
b1101 J
b1101 S"
b1101 y"
b1101 {"
b1101 I
b1101 z"
b111 V
b111 {
b111 T"
b1101 [
b1101 !"
b1101 W"
b1101 )#
b0 Y
b0 }
b0 U"
b0 (#
b10011 T
b10011 I"
b111 #
b100 x"
b100 q
b100 $#
b100 t"
b100 m
b100 5"
b110 u"
b110 n
b110 6"
1w"
1p
b100 p"
b100 l
b100 s"
b100 !#
b100 k"
b100 f
b100 $"
b100 j"
b100 e
b100 #"
b100 q"
1o"
1k
0n"
0j
b0 ["
b0 1
b0 K"
b11111 `"
b11111 7
b11111 4"
b110 d"
b110 ;
b110 3"
b110 ##
b11110 b"
b11110 9
b11110 "#
b110 \"
b110 2
b110 1"
1a"
18
0^"
05
0]"
04
1f"
1?
0Z"
0,
b10 Y"
b10 *
b10 J"
b11000 O"
b110010 U
b110010 +"
b110010 ."
b11000 M
b11000 *"
b110100000000001110010011 P"
b110100000000001110010011 L
1!
1s
#375
0!
0s
#400
b11001100011 `
b11001100011 z
b11001100011 N"
b100100 c
b100100 w
b100100 ,"
b100000 x
b100100 d
b100100 ("
b100100 -"
b100000 a
b100000 y
b100000 &"
b100000 M"
b1101 G"
b1101 +
b1101 g"
b10 B
b10 C"
b10 Q"
0D
b1101 .
b1101 A"
b1101 F"
b1101 h"
b1001100 K
b1001100 )"
b1001100 |"
b10 A
b10 B"
b10 H"
0C
b1000 G
b1000 R"
b100110 J
b100110 S"
b100110 y"
b100110 {"
b100110 I
b100110 z"
b11100 V
b11100 {
b11100 T"
b110 [
b110 !"
b110 W"
b110 )#
b110 Y
b110 }
b110 U"
b110 (#
b110011 T
b110011 I"
b111 >
b111 2"
b111 i"
b111 '#
b1101 =
b1101 /"
b1101 >"
b101 g
b101 %"
b101 r"
b11100 O"
b1101000 U
b1101000 +"
b1101000 ."
b11100 M
b11100 *"
b10011000110000111000110011 P"
b10011000110000111000110011 L
b111 `"
b111 7
b111 4"
b1101 d"
b1101 ;
b1101 3"
b1101 ##
b0 b"
b0 9
b0 "#
b1101 \"
b1101 2
b1101 1"
1Z"
1,
b1 Y"
b1 *
b1 J"
b11111 p"
b11111 l
b11111 s"
b11111 !#
b0 k"
b0 f
b0 $"
b0 j"
b0 e
b0 #"
b0 q"
b0 u"
b0 n
b0 6"
b1000 #
1!
1s
#425
0!
0s
#450
b100110000001100010011 `
b100110000001100010011 z
b100110000001100010011 N"
b100100 x
b101000 d
b101000 ("
b101000 -"
b100100 a
b100100 y
b100100 &"
b100100 M"
b100000 c
b100000 w
b100000 ,"
0X
b0 .
b0 A"
b0 F"
b0 h"
1E
1@
b0 B
b0 C"
b0 Q"
1D
0W
b0 G"
b0 +
b0 g"
b0 K
b0 )"
b0 |"
b0 A
b0 B"
b0 H"
1C
b1101 r
b1101 |
b1101 7"
b0 g
b0 %"
b0 r"
b11100 >
b11100 2"
b11100 i"
b11100 '#
b0 =
b0 /"
b0 >"
b11 L"
b11 (
b11 D"
b0 G
b0 R"
b0 J
b0 S"
b0 y"
b0 {"
b0 I
b0 z"
b1100 V
b1100 {
b1100 T"
b0 [
b0 !"
b0 W"
b0 )#
b0 Y
b0 }
b0 U"
b0 (#
b1100011 T
b1100011 I"
b1001 #
b111 x"
b111 q
b111 $#
b1101 t"
b1101 m
b1101 5"
b101 u"
b101 n
b101 6"
b111 p"
b111 l
b111 s"
b111 !#
b1101 k"
b1101 f
b1101 $"
b1101 j"
b1101 e
b1101 #"
b1101 q"
b1000 ["
b1000 1
b1000 K"
b11100 `"
b11100 7
b11100 4"
b110 d"
b110 ;
b110 3"
b110 ##
b110 b"
b110 9
b110 "#
b100110 \"
b100110 2
b100110 1"
0Z"
0,
b10 Y"
b10 *
b10 J"
b100000 O"
b100000 U
b100000 +"
b100000 ."
b100000 M
b100000 *"
b11001100011 P"
b11001100011 L
1!
1s
#475
0!
0s
#500
b11001100011 `
b11001100011 z
b11001100011 N"
b100000 x
b100100 d
b100100 ("
b100100 -"
b100000 a
b100000 y
b100000 &"
b100000 M"
0E
0@
b100100 c
b100100 w
b100100 ,"
b0 V
b0 {
b0 T"
b0 T
b0 I"
b1100 >
b1100 2"
b1100 i"
b1100 '#
b10 L"
b10 (
b10 D"
b101 g
b101 %"
b101 r"
b0 O"
b0 U
b0 +"
b0 ."
b0 M
b0 *"
b0 P"
b0 L
b0 ["
b0 1
b0 K"
b1100 `"
b1100 7
b1100 4"
b0 d"
b0 ;
b0 3"
b0 ##
b0 b"
b0 9
b0 "#
b0 \"
b0 2
b0 1"
0a"
08
1Z"
1,
b0 Y"
b0 *
b0 J"
b11100 p"
b11100 l
b11100 s"
b11100 !#
b0 k"
b0 f
b0 $"
b0 j"
b0 e
b0 #"
b0 q"
b0 u"
b0 n
b0 6"
b1010 #
b1 $
1!
1s
#525
0!
0s
#550
b100110000001100010011 `
b100110000001100010011 z
b100110000001100010011 N"
b100100 x
b101000 d
b101000 ("
b101000 -"
b100100 a
b100100 y
b100100 &"
b100100 M"
b100000 c
b100000 w
b100000 ,"
1E
1@
b0 r
b0 |
b0 7"
b0 >
b0 2"
b0 i"
b0 '#
b1100 V
b1100 {
b1100 T"
b1100011 T
b1100011 I"
b1011 #
b1100 x"
b1100 q
b1100 $#
b0 t"
b0 m
b0 5"
b101 u"
b101 n
b101 6"
0w"
0p
b1100 p"
b1100 l
b1100 s"
b1100 !#
0o"
0k
b0 `"
b0 7
b0 4"
b100000 O"
b100000 U
b100000 +"
b100000 ."
b100000 M
b100000 *"
b11001100011 P"
b11001100011 L
1!
1s
#575
0!
0s
#600
b11001100011 `
b11001100011 z
b11001100011 N"
b100000 x
b100100 d
b100100 ("
b100100 -"
b100000 a
b100000 y
b100000 &"
b100000 M"
0E
0@
b100100 c
b100100 w
b100100 ,"
b0 V
b0 {
b0 T"
b0 T
b0 I"
b1100 >
b1100 2"
b1100 i"
b1100 '#
b0 O"
b0 U
b0 +"
b0 ."
b0 M
b0 *"
b0 P"
b0 L
b1100 `"
b1100 7
b1100 4"
b0 p"
b0 l
b0 s"
b0 !#
b1100 #
b10 $
1!
1s
#625
0!
0s
#650
b100110000001100010011 `
b100110000001100010011 z
b100110000001100010011 N"
b100100 x
b101000 d
b101000 ("
b101000 -"
b100100 a
b100100 y
b100100 &"
b100100 M"
b100000 c
b100000 w
b100000 ,"
1E
1@
b0 >
b0 2"
b0 i"
b0 '#
b1100 V
b1100 {
b1100 T"
b1100011 T
b1100011 I"
b1101 #
b1100 p"
b1100 l
b1100 s"
b1100 !#
b0 `"
b0 7
b0 4"
b100000 O"
b100000 U
b100000 +"
b100000 ."
b100000 M
b100000 *"
b11001100011 P"
b11001100011 L
1!
1s
#675
0!
0s
#700
b11001100011 `
b11001100011 z
b11001100011 N"
b100000 x
b100100 d
b100100 ("
b100100 -"
b100000 a
b100000 y
b100000 &"
b100000 M"
0E
0@
b100100 c
b100100 w
b100100 ,"
b0 V
b0 {
b0 T"
b0 T
b0 I"
b1100 >
b1100 2"
b1100 i"
b1100 '#
b0 O"
b0 U
b0 +"
b0 ."
b0 M
b0 *"
b0 P"
b0 L
b1100 `"
b1100 7
b1100 4"
b0 p"
b0 l
b0 s"
b0 !#
b1110 #
b11 $
1!
1s
#725
0!
0s
#750
b100110000001100010011 `
b100110000001100010011 z
b100110000001100010011 N"
b100100 x
b101000 d
b101000 ("
b101000 -"
b100100 a
b100100 y
b100100 &"
b100100 M"
b100000 c
b100000 w
b100000 ,"
1E
1@
b0 >
b0 2"
b0 i"
b0 '#
b1100 V
b1100 {
b1100 T"
b1100011 T
b1100011 I"
b1111 #
b1100 p"
b1100 l
b1100 s"
b1100 !#
b0 `"
b0 7
b0 4"
b100000 O"
b100000 U
b100000 +"
b100000 ."
b100000 M
b100000 *"
b11001100011 P"
b11001100011 L
1!
1s
#775
0!
0s
#800
b11001100011 `
b11001100011 z
b11001100011 N"
b100000 x
b100100 d
b100100 ("
b100100 -"
b100000 a
b100000 y
b100000 &"
b100000 M"
0E
0@
b100100 c
b100100 w
b100100 ,"
b0 V
b0 {
b0 T"
b0 T
b0 I"
b1100 >
b1100 2"
b1100 i"
b1100 '#
b0 O"
b0 U
b0 +"
b0 ."
b0 M
b0 *"
b0 P"
b0 L
b1100 `"
b1100 7
b1100 4"
b0 p"
b0 l
b0 s"
b0 !#
b10000 #
b100 $
1!
1s
#825
0!
0s
